<?xml version="1.0" encoding="UTF-8"?>
<svg width="166px" height="166px" viewBox="0 0 166 166" version="1.1" xmlns="http://www.w3.org/2000/svg" xmlns:xlink="http://www.w3.org/1999/xlink">
    <!-- Generator: Sketch 57.1 (83088) - https://sketch.com -->
    <title>Group</title>
    <desc>Created with Sketch.</desc>
    <defs>
        <linearGradient x1="28.5862199%" y1="94.1429782%" x2="77.6308358%" y2="7.3842244%" id="linearGradient-1">
            <stop stop-color="#244575" offset="0%"></stop>
            <stop stop-color="#124980" offset="52.209696%"></stop>
            <stop stop-color="#2766A1" offset="100%"></stop>
        </linearGradient>
    </defs>
    <g id="assects" stroke="none" stroke-width="1" fill="none" fill-rule="evenodd">
        <g id="Group">
            <g id="Group-2" fill="url(#linearGradient-1)">
                <circle id="Oval" cx="83" cy="83" r="83"></circle>
            </g>
            <g id="Group-79-Copy" transform="translate(51.000000, 45.000000)">
                <path d="M56.5,-3.55271368e-14 C58.0976809,-3.5820626e-14 59.4036609,1.24891996 59.4949073,2.82372721 L59.5,3 L59.5006526,12.0320931 C58.923716,11.9823781 58.3398212,11.9570046 57.75,11.9570046 C56.5984739,11.9570046 55.4695364,12.0537181 54.3708672,12.2394657 L54.3706897,6.70875531 C54.3706897,5.82868383 53.6293879,5.10748861 52.7293103,5.10748861 L6.77068966,5.10748861 C5.92061639,5.10748861 5.21216725,5.75077694 5.13607437,6.56364423 L5.12931034,6.70875531 L5.12931034,62.7530898 C5.12931034,63.5850244 5.79053319,64.2738173 6.62224676,64.3477822 L6.77068966,64.3543565 L52.7293103,64.3543565 C53.5793836,64.3543565 54.2878327,63.7117821 54.3639256,62.8983199 L54.3706897,62.7530898 L54.3708672,51.9245434 C55.4695364,52.110291 56.5984739,52.2070046 57.75,52.2070046 C58.3398212,52.2070046 58.923716,52.181631 59.5006526,52.131916 L59.5,66.7070046 C59.5,68.3046854 58.25108,69.6106654 56.6762728,69.7019119 L56.5,69.7070046 L3,69.7070046 C1.40231912,69.7070046 0.0963391206,68.4580846 0.00509269341,66.8832773 L-7.10542736e-15,66.7070046 L-7.10542736e-15,3 C-7.30108684e-15,1.40231912 1.24891996,0.0963391206 2.82372721,0.00509269341 L3,-3.55271368e-14 L56.5,-3.55271368e-14 Z M48.9997948,50.2103038 L49,56.3320046 C49,57.4365741 48.1045695,58.3320046 47,58.3320046 L44.875,58.3320046 C43.7704305,58.3320046 42.875,57.4365741 42.875,56.3320046 L42.8741438,45.6367062 C44.5962656,47.5255967 46.6733007,49.0852807 48.9997948,50.2103038 Z M46.8125,10.2070046 C48.503872,10.2070046 49.875,11.5781325 49.875,13.2695046 L49.8743311,13.5563949 C48.3034738,14.225051 46.8350384,15.0876656 45.4990954,16.1141682 L45.5,14.5820046 L14.875,14.5820046 L14.875,24.2070046 L39.2239639,24.2073377 C38.6342399,25.5929711 38.1954273,27.0582873 37.9281628,28.5826498 L13.5625,28.5820046 C11.871128,28.5820046 10.5,27.2108766 10.5,25.5195046 L10.5,13.2695046 C10.5,11.5781325 11.871128,10.2070046 13.5625,10.2070046 L46.8125,10.2070046 Z" id="Combined-Shape" fill="#FFFFFF"></path>
                <path d="M15.5,53.0820046 C16.6045695,53.0820046 17.5,53.9774351 17.5,55.0820046 L17.5,56.3320046 C17.5,57.4365741 16.6045695,58.3320046 15.5,58.3320046 L13.375,58.3320046 C12.2704305,58.3320046 11.375,57.4365741 11.375,56.3320046 L11.375,55.0820046 C11.375,53.9774351 12.2704305,53.0820046 13.375,53.0820046 L15.5,53.0820046 Z M26,53.0820046 C27.1045695,53.0820046 28,53.9774351 28,55.0820046 L28,56.3320046 C28,57.4365741 27.1045695,58.3320046 26,58.3320046 L23.875,58.3320046 C22.7704305,58.3320046 21.875,57.4365741 21.875,56.3320046 L21.875,55.0820046 C21.875,53.9774351 22.7704305,53.0820046 23.875,53.0820046 L26,53.0820046 Z M36.5,53.0820046 C37.6045695,53.0820046 38.5,53.9774351 38.5,55.0820046 L38.5,56.3320046 C38.5,57.4365741 37.6045695,58.3320046 36.5,58.3320046 L34.375,58.3320046 C33.2704305,58.3320046 32.375,57.4365741 32.375,56.3320046 L32.375,55.0820046 C32.375,53.9774351 33.2704305,53.0820046 34.375,53.0820046 L36.5,53.0820046 Z M15.5,43.4570046 C16.6045695,43.4570046 17.5,44.3524351 17.5,45.4570046 L17.5,46.7070046 C17.5,47.8115741 16.6045695,48.7070046 15.5,48.7070046 L13.375,48.7070046 C12.2704305,48.7070046 11.375,47.8115741 11.375,46.7070046 L11.375,45.4570046 C11.375,44.3524351 12.2704305,43.4570046 13.375,43.4570046 L15.5,43.4570046 Z M26,43.4570046 C27.1045695,43.4570046 28,44.3524351 28,45.4570046 L28,46.7070046 C28,47.8115741 27.1045695,48.7070046 26,48.7070046 L23.875,48.7070046 C22.7704305,48.7070046 21.875,47.8115741 21.875,46.7070046 L21.875,45.4570046 C21.875,44.3524351 22.7704305,43.4570046 23.875,43.4570046 L26,43.4570046 Z M36.5,43.4570046 C37.6045695,43.4570046 38.5,44.3524351 38.5,45.4570046 L38.5,46.7070046 C38.5,47.8115741 37.6045695,48.7070046 36.5,48.7070046 L34.375,48.7070046 C33.2704305,48.7070046 32.375,47.8115741 32.375,46.7070046 L32.375,45.4570046 C32.375,44.3524351 33.2704305,43.4570046 34.375,43.4570046 L36.5,43.4570046 Z M15.5,33.8320046 C16.6045695,33.8320046 17.5,34.7274351 17.5,35.8320046 L17.5,37.0820046 C17.5,38.1865741 16.6045695,39.0820046 15.5,39.0820046 L13.375,39.0820046 C12.2704305,39.0820046 11.375,38.1865741 11.375,37.0820046 L11.375,35.8320046 C11.375,34.7274351 12.2704305,33.8320046 13.375,33.8320046 L15.5,33.8320046 Z M26,33.8320046 C27.1045695,33.8320046 28,34.7274351 28,35.8320046 L28,37.0820046 C28,38.1865741 27.1045695,39.0820046 26,39.0820046 L23.875,39.0820046 C22.7704305,39.0820046 21.875,38.1865741 21.875,37.0820046 L21.875,35.8320046 C21.875,34.7274351 22.7704305,33.8320046 23.875,33.8320046 L26,33.8320046 Z M36.5,33.8320046 C37.6045695,33.8320046 38.5,34.7274351 38.5,35.8320046 L38.5,37.0820046 C38.5,38.1865741 37.6045695,39.0820046 36.5,39.0820046 L34.375,39.0820046 C33.2704305,39.0820046 32.375,38.1865741 32.375,37.0820046 L32.375,35.8320046 C32.375,34.7274351 33.2704305,33.8320046 34.375,33.8320046 L36.5,33.8320046 Z" id="Combined-Shape" fill="#FFFFFF"></path>
                <path d="M57.75,22.4570046 C63.057294,22.4570046 67.375,26.7747106 67.375,32.0820046 C67.375,37.3892985 63.057294,41.7070046 57.75,41.7070046 C52.442706,41.7070046 48.125,37.3892985 48.125,32.0820046 C48.125,26.7747106 52.442706,22.4570046 57.75,22.4570046 L57.75,22.4570046 Z M41.125,29.6363095 L41.125,34.5282711 C41.125,35.0805558 41.5727153,35.5282711 42.125,35.5282711 L44.5434913,35.5282711 L44.5434913,35.5282711 C44.8635106,36.7540802 45.3521114,37.9113125 45.9790063,38.9782522 L44.264735,40.6929575 C43.8744508,41.0836147 43.8744695,41.716674 44.264777,42.1073081 L47.7240945,45.5670907 C48.1145389,45.9576948 48.7477039,45.9577374 49.1382545,45.5672393 C49.1382723,45.5672215 49.1382902,45.5672036 49.1382545,45.5671321 L50.8530137,43.8523434 L50.8530137,43.8523434 C51.8445019,44.4358171 52.9154235,44.8964241 54.0463487,45.2153059 L54.0463487,47.7070046 C54.0463487,48.2592893 54.4940639,48.7070046 55.0463487,48.7070046 L59.9381918,48.7070046 C60.4904765,48.7070046 60.9381918,48.2592893 60.9381918,47.7070046 L60.9381918,45.350745 L60.9381918,45.350745 C62.2594141,45.0330061 63.5052033,44.5232524 64.6464148,43.8523434 L66.3616621,45.5672155 C66.7522473,45.9576557 67.3853893,45.9575998 67.7759055,45.5670907 L71.235223,42.1073081 C71.6256465,41.7167249 71.6256279,41.0836012 71.2351815,40.6930409 L69.5204223,38.9782522 L69.5204223,38.9782522 C70.1473171,37.9113125 70.6364894,36.7540802 70.9565087,35.5282711 L73.375,35.5282711 C73.9272847,35.5282711 74.375,35.0805558 74.375,34.5282711 L74.375,29.6363095 C74.375,29.0840248 73.9272847,28.6363095 73.375,28.6363095 L70.9565087,28.6363095 L70.9565087,28.6363095 C70.6364894,27.4099289 70.1473171,26.2526966 69.5204223,25.1851855 L71.2351815,23.4703967 C71.6256856,23.0798617 71.6256856,22.4467061 71.2351815,22.056171 L67.775947,18.596877 C67.3853826,18.2064484 66.7522726,18.2064111 66.3616621,18.5967936 L64.6464148,20.3116657 L64.6464148,20.3116657 C63.5794935,19.6841886 62.4217096,19.1955794 61.1959216,18.8749832 L61.1959216,16.4570046 C61.1959216,15.9047198 60.7482063,15.4570046 60.1959216,15.4570046 L55.3040784,15.4570046 C54.7517937,15.4570046 54.3040784,15.9047198 54.3040784,16.4570046 L54.3040784,18.8749832 L54.3040784,18.8749832 C53.077719,19.1955794 51.9205065,19.6841886 50.8535852,20.3116657 L49.1383379,18.5967936 C48.7477274,18.2064111 48.1146174,18.2064484 47.724053,18.596877 L44.2648185,22.056171 C43.8743144,22.4467061 43.8743144,23.0798617 44.2648185,23.4703967 L45.9795777,25.1851855 L45.9795777,25.1851855 C45.3521114,26.2526966 44.8635106,27.4099289 44.5434913,28.6363095 L42.125,28.6363095 C41.5727153,28.6363095 41.125,29.0840248 41.125,29.6363095 Z" id="Fill-52-Copy" fill="#FFA200"></path>
            </g>
        </g>
    </g>
</svg>