<?xml version="1.0" encoding="UTF-8"?>
<svg width="94px" height="94px" viewBox="0 0 94 94" version="1.1" xmlns="http://www.w3.org/2000/svg" xmlns:xlink="http://www.w3.org/1999/xlink">
    <!-- Generator: Sketch 57.1 (83088) - https://sketch.com -->
    <title>Billing</title>
    <desc>Created with Sketch.</desc>
    <defs>
        <linearGradient x1="28.5862199%" y1="94.1429782%" x2="77.6308358%" y2="7.3842244%" id="linearGradient-1">
            <stop stop-color="#244575" offset="0%"></stop>
            <stop stop-color="#124980" offset="52.209696%"></stop>
            <stop stop-color="#2766A1" offset="100%"></stop>
        </linearGradient>
    </defs>
    <g id="Design" stroke="none" stroke-width="1" fill="none" fill-rule="evenodd">
        <g id="Roosevelt-Microsite-D2" transform="translate(-621.000000, -2407.000000)">
            <g id="Billing" transform="translate(621.000000, 2407.000000)">
                <circle id="Oval" fill="url(#linearGradient-1)" cx="47" cy="47" r="47"></circle>
                <g id="Group-6" transform="translate(31.710843, 26.048193)">
                    <path d="M23.7488134,2.26506024 L21.9299014,5.01549053 L2.72836802,5.01549053 L2.72836802,38.020654 L28.9824754,38.020654 L28.9824754,24.2685026 L31.7108434,24.2685026 L31.7108434,38.020654 C31.7108434,39.0265487 31.4371477,39.7565345 30.8897563,40.2106115 C30.4843652,40.5468952 29.9288602,40.7318512 29.2232414,40.7654796 L28.9824754,40.7710843 L2.72836802,40.7710843 C0.976823117,40.7710843 0.0686146506,39.9209285 0.00374261731,38.2206167 L0,38.020654 L0,5.01549053 C0,3.2497822 0.843336433,2.33422973 2.5300093,2.26883312 L2.72836802,2.26506024 L23.7488134,2.26506024 Z M25.6192041,30.6861733 L25.6192041,33.4366036 L6.36619204,33.4366036 L6.36619204,30.6861733 L25.6192041,30.6861733 Z M25.6192041,24.2685026 L25.6192041,27.0189329 L6.36619204,27.0189329 L6.36619204,24.2685026 L25.6192041,24.2685026 Z M19.3902884,17.8508319 L19.3902884,20.6012622 L6.36619204,20.6012622 L6.36619204,17.8508319 L19.3902884,17.8508319 Z M9.09456006,11.4331612 L9.09456006,14.1835915 L6.36619204,14.1835915 L6.36619204,11.4331612 L9.09456006,11.4331612 Z M13.6418401,11.4331612 L13.6418401,14.1835915 L10.9134721,14.1835915 L10.9134721,11.4331612 L13.6418401,11.4331612 Z M18.1891201,11.4331612 L18.1891201,14.1835915 L15.4607521,14.1835915 L15.4607521,11.4331612 L18.1891201,11.4331612 Z" id="Fill-73" fill="#FFFFFF"></path>
                    <path d="M35.326228,5.06099398 C35.326228,5.82329665 34.7082596,6.44126506 33.9459569,6.44126506 L28.465709,6.44126506 L28.465709,6.44126506 C28.0083411,6.44126506 27.0936052,6.90135542 27.0936052,7.82153614 C27.0936052,8.74171687 28.0083411,9.20180723 28.465709,9.20180723 L31.6672845,9.20180723 C34.4114921,9.20180723 36.2409639,11.2617019 36.2409639,13.8027108 C36.2409639,16.3437197 34.4114921,18.4036145 31.6672845,18.4036145 L31.6672845,20.7122335 C31.6672845,21.4700256 31.0529727,22.0843373 30.2951807,22.0843373 C29.5373887,22.0843373 28.9230769,21.4700256 28.9230769,20.7122335 L28.9230769,18.4036145 L28.9230769,18.4036145 L25.7296687,18.4036145 C24.967366,18.4036145 24.3493976,17.785646 24.3493976,17.0233434 C24.3493976,16.2610407 24.967366,15.6430723 25.7296687,15.6430723 L31.6672845,15.6430723 L31.6672845,15.6430723 C32.6776739,15.6430723 33.4967563,14.8191144 33.4967563,13.8027108 C33.4967563,12.7863073 32.6776739,11.9623494 31.6672845,11.9623494 L28.9230769,11.9623494 C26.192333,11.9623494 24.3493976,10.121988 24.3493976,7.82153614 C24.3493976,5.52108434 26.1788693,3.68072289 28.9230769,3.68072289 L28.9230769,1.3721038 C28.9230769,0.614311796 29.5373887,1.39204133e-16 30.2951807,0 C31.0529727,-1.39204133e-16 31.6672845,0.614311796 31.6672845,1.3721038 L31.6672845,3.68072289 L31.6672845,3.68072289 L33.9459569,3.68072289 C34.7082596,3.68072289 35.326228,4.29869131 35.326228,5.06099398 Z" id="Path-6" fill="#FFA200" fill-rule="nonzero"></path>
                </g>
            </g>
        </g>
    </g>
</svg>