<?xml version="1.0" encoding="UTF-8"?>
<svg width="166px" height="166px" viewBox="0 0 166 166" version="1.1" xmlns="http://www.w3.org/2000/svg" xmlns:xlink="http://www.w3.org/1999/xlink">
    <!-- Generator: Sketch 57.1 (83088) - https://sketch.com -->
    <title>Group Copy</title>
    <desc>Created with Sketch.</desc>
    <defs>
        <linearGradient x1="28.5862199%" y1="94.1429782%" x2="77.6308358%" y2="7.3842244%" id="linearGradient-1">
            <stop stop-color="#244575" offset="0%"></stop>
            <stop stop-color="#124980" offset="52.209696%"></stop>
            <stop stop-color="#2766A1" offset="100%"></stop>
        </linearGradient>
    </defs>
    <g id="assects" stroke="none" stroke-width="1" fill="none" fill-rule="evenodd">
        <g id="Group-Copy">
            <g id="Group-2">
                <circle id="Oval" fill="url(#linearGradient-1)" cx="83" cy="83" r="83"></circle>
                <path d="M78.039,55 L78.039,60 L51.0816327,60 L51.0816327,108.265306 L76.0099557,108.265407 C76.0616547,109.902213 76.3136914,111.488483 76.7423568,113.000507 L48,113 C46.8954305,113 46,112.104569 46,111 L46,57 C46,55.8954305 46.8954305,55 48,55 L78.039,55 Z M96,79.469 L96.000886,88.0033565 C95.878908,88.0011221 95.7566582,88 95.6341463,88 C94.3637706,88 93.1215743,88.1206502 91.9183906,88.3511173 L91.918,83.239 L96,79.469 Z M119.272727,35 C121.331243,35 123,36.6571538 123,38.7013566 L123,70.1628875 C123,72.2070903 121.331243,73.864244 119.272727,73.864244 L95.9772727,73.864244 L82,86 L82,38.7013566 C82,36.6571538 83.6687568,35 85.7272727,35 L119.272727,35 Z M118,40 L87,40 L87,76 L94,69 L118,69 L118,40 Z" id="Combined-Shape" fill="#FFFFFF" fill-rule="nonzero"></path>
                <path d="M96.5,92 C105.612698,92 113,99.163444 113,108 C113,111.635445 111.74964,114.987703 109.643184,117.674457 L119.436743,126.751146 C119.467843,126.779969 119.498018,126.809775 119.527222,126.840516 C120.287994,127.641328 120.255534,128.907242 119.454722,129.668014 L119.454722,129.668014 L118.360595,130.707435 C117.595563,131.434215 116.397508,131.4416 115.623575,130.724305 L115.623575,130.724305 L105.544427,121.384276 C102.947069,123.038031 99.8393852,124 96.5,124 C87.3873016,124 80,116.836556 80,108 C80,99.163444 87.3873016,92 96.5,92 Z M96.5,97 C90.2350199,97 85.15625,101.924868 85.15625,108 C85.15625,114.075132 90.2350199,119 96.5,119 C102.76498,119 107.84375,114.075132 107.84375,108 C107.84375,101.924868 102.76498,97 96.5,97 Z" id="Combined-Shape" fill="#FFA200"></path>
                <rect id="Rectangle" fill="#FFFFFF" x="57" y="69" width="5" height="5" rx="1"></rect>
                <rect id="Rectangle" fill="#FFFFFF" x="57" y="79" width="5" height="5" rx="1"></rect>
                <rect id="Rectangle" fill="#FFFFFF" x="57" y="89" width="5" height="5" rx="1"></rect>
                <rect id="Rectangle" fill="#FFFFFF" x="66" y="69" width="11" height="5"></rect>
                <rect id="Rectangle" fill="#FFFFFF" x="66" y="79" width="11" height="5"></rect>
                <rect id="Rectangle" fill="#FFFFFF" x="66" y="89" width="11" height="5"></rect>
                <path d="M103.435897,59.6666667 C105.135235,59.6666667 106.512821,61.0442521 106.512821,62.7435897 C106.512821,64.4429274 105.135235,65.8205128 103.435897,65.8205128 C101.73656,65.8205128 100.358974,64.4429274 100.358974,62.7435897 C100.358974,61.0442521 101.73656,59.6666667 103.435897,59.6666667 Z M106.512821,43.2564103 L105.487179,56.5897436 L101.384615,56.5897436 L100.358974,43.2564103 L106.512821,43.2564103 Z" id="Combined-Shape" fill="#FFA200"></path>
            </g>
        </g>
    </g>
</svg>