<?xml version="1.0" encoding="UTF-8"?>
<svg width="166px" height="166px" viewBox="0 0 166 166" version="1.1" xmlns="http://www.w3.org/2000/svg" xmlns:xlink="http://www.w3.org/1999/xlink">
    <!-- Generator: Sketch 57.1 (83088) - https://sketch.com -->
    <title>Group 2 Copy 7</title>
    <desc>Created with Sketch.</desc>
    <defs>
        <linearGradient x1="28.5862199%" y1="94.1429782%" x2="77.6308358%" y2="7.3842244%" id="linearGradient-1">
            <stop stop-color="#244575" offset="0%"></stop>
            <stop stop-color="#124980" offset="52.209696%"></stop>
            <stop stop-color="#2766A1" offset="100%"></stop>
        </linearGradient>
    </defs>
    <g id="assects" stroke="none" stroke-width="1" fill="none" fill-rule="evenodd">
        <g id="Group-2-Copy-7">
            <circle id="Oval" fill="url(#linearGradient-1)" cx="83" cy="83" r="83"></circle>
            <path d="M93.0344828,45 L96.0370059,46.9931663 L107.04878,46.9931663 C108.705635,46.9931663 110.04878,48.336312 110.04878,49.9931663 L110.04878,49.9931663 L110.048,86 L105.044,86 L105.044575,53.5382934 C105.044575,52.7273875 104.39948,52.0547387 103.588052,51.9825028 L103.44323,51.976082 L96.0370059,51.976082 L93.0344828,53.9692483 L69.0142977,53.9692483 L66.0117746,51.976082 L58.6055509,51.976082 C57.7274264,51.976082 57.0042052,52.6796871 57.0042052,53.5382934 L57.0042052,53.5382934 L57.0042052,108.215693 C57.0042052,109.07508 57.7274264,109.777904 58.6055509,109.777904 L58.6055509,109.777904 L86,109.777 L86,115 L55,115 C53.4023191,115 52.0963391,113.75108 52.0050927,112.176273 L52,112 L52,49.9931663 C52,48.336312 53.3431458,46.9931663 55,46.9931663 L55,46.9931663 L66.0117746,46.9931663 L69.0142977,45 L93.0344828,45 Z" id="Combined-Shape" fill="#FFFFFF"></path>
            <path d="M66,98 L86,98 L86,98 L86,103 L66,103 C64.8954305,103 64,102.104569 64,101 L64,100 C64,98.8954305 64.8954305,98 66,98 Z" id="Rectangle" fill="#FFFFFF"></path>
            <path d="M93,123 L123,123 L123,93 L93,93 L93,123 Z M93,89 C90.4074074,89 89,90.4074074 89,93 L89,99 L89,103 L89,123 C89,125.592593 90.4074074,127 93,127 L123,127 C125.592593,127 127,125.592593 127,123 L127,93 C127,90.4074074 125.592593,89 123,89 L93,89 Z" id="Fill-73" fill="#FFFFFF"></path>
            <polygon id="Fill-36" fill="#FFA200" points="110.011371 100 106.199155 100 106.199155 106.312814 100 106.312814 100 110.228216 106.199155 110.228216 106.199155 116.540541 110.011371 116.540541 110.011371 110.228216 116.210526 110.228216 116.210526 106.312814 110.011371 106.312814"></polygon>
            <rect id="Rectangle-Copy-11" fill="#FFA200" transform="translate(81.000000, 81.500000) rotate(-90.000000) translate(-81.000000, -81.500000) " x="72" y="78" width="18" height="7" rx="1"></rect>
            <circle id="Oval" fill="#FFA200" cx="81" cy="65" r="4"></circle>
        </g>
    </g>
</svg>