<?xml version="1.0" encoding="UTF-8"?>
<svg width="166px" height="166px" viewBox="0 0 166 166" version="1.1" xmlns="http://www.w3.org/2000/svg" xmlns:xlink="http://www.w3.org/1999/xlink">
    <!-- Generator: Sketch 57.1 (83088) - https://sketch.com -->
    <title>Group 16</title>
    <desc>Created with Sketch.</desc>
    <defs>
        <linearGradient x1="28.5862199%" y1="94.1429782%" x2="77.6308358%" y2="7.3842244%" id="linearGradient-1">
            <stop stop-color="#244575" offset="0%"></stop>
            <stop stop-color="#124980" offset="52.209696%"></stop>
            <stop stop-color="#2766A1" offset="100%"></stop>
        </linearGradient>
    </defs>
    <g id="assects" stroke="none" stroke-width="1" fill="none" fill-rule="evenodd">
        <g id="Group-16">
            <g id="Group-2" fill="url(#linearGradient-1)">
                <circle id="Oval" cx="83" cy="83" r="83"></circle>
            </g>
            <g id="Group-80-Copy" transform="translate(51.000000, 48.000000)">
                <path d="M43.9962327,7.10542736e-15 C46.6129442,7.10542736e-15 48.7417941,2.12836122 48.7417941,4.74580798 L48.7417941,4.74580798 L48.7408395,11.738247 C46.1338146,13.0944864 43.8651998,15.0115621 42.0949074,17.3295619 L4.79470714,17.3290919 L4.91817085,30.9156005 L38.0172329,30.9156005 C38.118903,32.8762924 38.5017693,34.2410147 38.8457033,35.055572 C38.9110619,35.2745941 38.9802731,35.4933719 39.0531303,35.7104765 L32.101763,35.7105568 L32.101763,39.7057594 C32.101763,41.0297812 31.0284312,42.1031129 29.7044094,42.1031129 C28.3803876,42.1031129 27.3070558,41.0297812 27.3070558,39.7057594 L27.3070558,39.7057594 L27.3070558,35.7105568 L4.91817085,35.7105568 L4.91817085,38.7847232 L4.83606149,38.7847232 L4.83606149,64.9496009 L54.2431212,64.9496009 L54.2431349,48.9233524 C55.4288584,49.1439363 56.6515789,49.2592593 57.9012346,49.2592593 C58.2826938,49.2592593 58.6616433,49.2485136 59.0377968,49.2273086 L59.0378284,64.9987492 C59.0378284,67.6149972 56.9089784,69.7445572 54.292267,69.7445572 L54.292267,69.7445572 L4.78691574,69.7445572 C2.17020432,69.7445572 0.0413543491,67.6149972 0.0413543491,64.9987492 L0.0413543491,64.9987492 L0.0413543491,30.9156005 L0.0785133294,30.9156005 L7.10542736e-15,17.2811423 C7.10542736e-15,14.6636956 2.12884997,12.5341356 4.74556139,12.5341356 L4.74556139,12.5341356 L10.5016073,12.5341356 L10.5016073,4.74580798 C10.5016073,2.12836122 12.6304573,7.10542736e-15 15.2471687,7.10542736e-15 L15.2471687,7.10542736e-15 Z M43.947087,4.79495629 L15.2963145,4.79495629 L15.2963145,12.5341356 L43.947087,12.5341356 L43.947087,4.79495629 Z" id="Combined-Shape" fill="#FFFFFF"></path>
                <path d="M57.9012346,19.8765432 C63.1430064,19.8765432 67.4074074,24.1409442 67.4074074,29.382716 C67.4074074,34.6244879 63.1430064,38.8888889 57.9012346,38.8888889 C52.6594628,38.8888889 48.3950617,34.6244879 48.3950617,29.382716 C48.3950617,24.1409442 52.6594628,19.8765432 57.9012346,19.8765432 L57.9012346,19.8765432 Z M41.4814815,26.9795604 L41.4814815,31.7864361 C41.4814815,32.3387208 41.9291967,32.7864361 42.4814815,32.7864361 L44.8577692,32.7864361 L44.8577692,32.7864361 C45.1738376,33.9971117 45.6564063,35.1400572 46.2755617,36.1938248 L44.591183,37.8786301 C44.2008987,38.2692873 44.2009175,38.9023466 44.5912249,39.2929807 L47.9903766,42.6925893 C48.380821,43.0831935 49.013986,43.083236 49.4045365,42.692738 C49.4045544,42.6927201 49.4045722,42.6927023 49.4045365,42.6926308 L51.0893963,41.0077421 L51.0893963,41.0077421 C52.0686439,41.5840124 53.1263442,42.0389329 54.2433073,42.3538779 L54.2433073,44.8024691 C54.2433073,45.3547539 54.6910226,45.8024691 55.2433073,45.8024691 L60.0500659,45.8024691 C60.6023507,45.8024691 61.0500659,45.3547539 61.0500659,44.8024691 L61.0500659,42.4876449 L61.0500659,42.4876449 C62.3549769,42.1738287 63.585386,41.6703683 64.7125085,41.0077421 L66.3978492,42.6927142 C66.7884344,43.0831543 67.4215764,43.0830984 67.8120926,42.6925893 L71.2112442,39.2929807 C71.6016677,38.9023975 71.6016491,38.2692738 71.2112027,37.8787135 L69.526343,36.1938248 L69.526343,36.1938248 C70.1454984,35.1400572 70.6286315,33.9971117 70.9446999,32.7864361 L73.3209877,32.7864361 C73.8732724,32.7864361 74.3209877,32.3387208 74.3209877,31.7864361 L74.3209877,26.9795604 C74.3209877,26.4272757 73.8732724,25.9795604 73.3209877,25.9795604 L70.9446999,25.9795604 L70.9446999,25.9795604 C70.6286315,24.7683204 70.1454984,23.6253749 69.526343,22.5710429 L71.2112027,20.8861542 C71.6017068,20.4956191 71.6017068,19.8624635 71.2112027,19.4719285 L67.812134,16.0728013 C67.4215697,15.6823728 66.7884596,15.6823354 66.3978492,16.0727179 L64.7125085,17.75769 L64.7125085,17.75769 C63.658759,17.1379596 62.5152687,16.6553826 61.3046139,16.3387443 L61.3046139,13.962963 C61.3046139,13.4106782 60.8568986,12.962963 60.3046139,12.962963 L55.4978553,12.962963 C54.9455705,12.962963 54.4978553,13.4106782 54.4978553,13.962963 L54.4978553,16.3387443 L54.4978553,16.3387443 C53.286636,16.6553826 52.1437101,17.1379596 51.0899607,17.75769 L49.4046199,16.0727179 C49.0140095,15.6823354 48.3808995,15.6823728 47.9903351,16.0728013 L44.5912664,19.4719285 C44.2007624,19.8624635 44.2007624,20.4956191 44.5912664,20.8861542 L46.2761261,22.5710429 L46.2761261,22.5710429 C45.6564063,23.6253749 45.1738376,24.7683204 44.8577692,25.9795604 L42.4814815,25.9795604 C41.9291967,25.9795604 41.4814815,26.4272757 41.4814815,26.9795604 Z" id="Fill-52-Copy-2" fill="#FFA200"></path>
            </g>
        </g>
    </g>
</svg>