<?xml version="1.0" encoding="UTF-8"?>
<svg width="166px" height="166px" viewBox="0 0 166 166" version="1.1" xmlns="http://www.w3.org/2000/svg" xmlns:xlink="http://www.w3.org/1999/xlink">
    <!-- Generator: Sketch 57.1 (83088) - https://sketch.com -->
    <title>Group 2</title>
    <desc>Created with Sketch.</desc>
    <defs>
        <linearGradient x1="28.5862199%" y1="94.1429782%" x2="77.6308358%" y2="7.3842244%" id="linearGradient-1">
            <stop stop-color="#244575" offset="0%"></stop>
            <stop stop-color="#124980" offset="52.209696%"></stop>
            <stop stop-color="#2766A1" offset="100%"></stop>
        </linearGradient>
    </defs>
    <g id="assects" stroke="none" stroke-width="1" fill="none" fill-rule="evenodd">
        <g id="Group-2">
            <circle id="Oval" fill="url(#linearGradient-1)" cx="83" cy="83" r="83"></circle>
            <path d="M55,73 C48.7819939,73.3470588 44,78.3588235 44,84 L44,90 C44,95.9 49.1878458,101.088235 56,101 L62,101 C63.2338501,101.088235 64.1867197,100.135294 64,99 L64,75 C64.1867197,73.8588235 63.2338501,72.9058824 62,73 L60,73 L108,73 L106,73 C104.766101,72.9058824 103.813231,73.8588235 104,75 L104,99 C103.813231,100.117647 104.766101,101.070588 106,101 L109,101 C108.030562,112.117647 100.425251,114.676471 97,115 C95.9255883,112.276471 93.1199166,110.123529 90,110 L85,110 C80.4326339,110.123529 77.0975902,113.458824 77,118 C77.0975902,121.647059 80.4326339,125 85,125 L90,125 C93.2610825,125 96.1373371,122.670588 97,120 C98.73126,119.282353 101.466349,118.664706 104,117 C108.012916,114.835294 112.54787,110.264706 113,101 C119.200311,100.682353 123.999951,95.6529412 124,90 L124,84 C124.017597,78.3588235 119.253249,73.3294118 113,73 L55,73 Z M55.25,96 C51.8012048,96 49,93 49,89.3064516 L49,84.6935484 C49,81 51.8012048,78 55.25,78 L59,78 L59,96 L55.25,96 Z M89.2699849,120 L84.7300151,120 C83.2217195,120 82,118.881215 82,117.5 C82,116.118785 83.2217195,115 84.7300151,115 L89.2699849,115 C90.7782805,115 92,116.118785 92,117.5 C92,118.881215 90.7782805,120 89.2699849,120 L89.2699849,120 Z M112.75,96 L109,96 L109,78 L112.75,78 C116.198795,78 119,81 119,84.6935484 L119,89.3064516 C119,93 116.198795,96 112.75,96 Z" id="headphones" fill="#FFFFFF"></path>
            <path d="M113,71 C113,46 93.4728313,42 86,42 L82,42 C74.5624113,42 55,47 55,71 L60,71 C60.0341654,56.7529412 68.9863594,47.2352941 82,47 L86,47 C99.0312375,47.2352941 107.965786,56.7529412 108,71 L113,71 Z" id="Path" fill="#FFA200"></path>
        </g>
    </g>
</svg>