<?xml version="1.0" encoding="UTF-8"?>
<svg width="172px" height="172px" viewBox="0 0 172 172" version="1.1" xmlns="http://www.w3.org/2000/svg" xmlns:xlink="http://www.w3.org/1999/xlink">
    <!-- Generator: Sketch 57.1 (83088) - https://sketch.com -->
    <title>Developer Portal</title>
    <desc>Created with Sketch.</desc>
    <defs>
        <linearGradient x1="28.5862199%" y1="94.1429782%" x2="77.6308358%" y2="7.3842244%" id="linearGradient-1">
            <stop stop-color="#244575" offset="0%"></stop>
            <stop stop-color="#124980" offset="52.209696%"></stop>
            <stop stop-color="#2766A1" offset="100%"></stop>
        </linearGradient>
    </defs>
    <g id="assects" stroke="none" stroke-width="1" fill="none" fill-rule="evenodd">
        <g id="Developer-Portal">
            <g id="Developer-Portal-icon">
                <circle id="Oval" fill="url(#linearGradient-1)" cx="86" cy="86" r="86"></circle>
                <path d="M52,57 C54.7614237,57 57,54.7614237 57,52 C57,49.2385763 54.7614237,47 52,47 C49.2385763,47 47,49.2385763 47,52 C47,54.7614237 49.2385763,57 52,57 Z M52,62 C46.4771525,62 42,57.5228475 42,52 C42,46.4771525 46.4771525,42 52,42 C57.5228475,42 62,46.4771525 62,52 C62,57.5228475 57.5228475,62 52,62 Z" id="Oval" fill="#FFFFFF" fill-rule="nonzero"></path>
                <path d="M52,125 C54.7614237,125 57,122.761424 57,120 C57,117.238576 54.7614237,115 52,115 C49.2385763,115 47,117.238576 47,120 C47,122.761424 49.2385763,125 52,125 Z M52,130 C46.4771525,130 42,125.522847 42,120 C42,114.477153 46.4771525,110 52,110 C57.5228475,110 62,114.477153 62,120 C62,125.522847 57.5228475,130 52,130 Z" id="Oval-Copy-2" fill="#FFFFFF" fill-rule="nonzero"></path>
                <path d="M120,57 C122.761424,57 125,54.7614237 125,52 C125,49.2385763 122.761424,47 120,47 C117.238576,47 115,49.2385763 115,52 C115,54.7614237 117.238576,57 120,57 Z M120,62 C114.477153,62 110,57.5228475 110,52 C110,46.4771525 114.477153,42 120,42 C125.522847,42 130,46.4771525 130,52 C130,57.5228475 125.522847,62 120,62 Z" id="Oval-Copy" fill="#FFFFFF" fill-rule="nonzero"></path>
                <path d="M120,125 C122.761424,125 125,122.761424 125,120 C125,117.238576 122.761424,115 120,115 C117.238576,115 115,117.238576 115,120 C115,122.761424 117.238576,125 120,125 Z M120,130 C114.477153,130 110,125.522847 110,120 C110,114.477153 114.477153,110 120,110 C125.522847,110 130,114.477153 130,120 C130,125.522847 125.522847,130 120,130 Z" id="Oval-Copy-3" fill="#FFFFFF" fill-rule="nonzero"></path>
                <path d="M88.5007708,112.885725 L88.5,116 C88.5,117.325483 87.4684641,118.410039 86.1643757,118.494682 L86,118.5 C84.6745166,118.5 83.5899613,117.468464 83.5053177,116.164376 L83.5,116 L83.5002289,112.885817 C84.3233508,112.961381 85.1571654,113 86,113 C86.8431758,113 87.6773244,112.96135 88.5007708,112.885725 Z M106.778248,103.242459 L117.767767,114.232233 L114.232233,117.767767 L103.242459,106.778248 C104.527043,105.711076 105.711076,104.527043 106.778248,103.242459 Z M68.7575411,106.778248 L57.767767,117.767767 L54.232233,114.232233 L65.2225781,103.243453 C66.2895347,104.527654 67.4732884,105.711352 68.7575411,106.778248 Z M112.885725,83.4992292 L116,83.5 C117.325483,83.5 118.410039,84.5315359 118.494682,85.8356243 L118.5,86 C118.5,87.3254834 117.468464,88.4100387 116.164376,88.4946823 L116,88.5 L112.885725,88.5007708 C112.96135,87.6773244 113,86.8431758 113,86 C113,85.1568242 112.96135,84.3226756 112.885725,83.4992292 Z M59,86 C59,86.8431758 59.0386499,87.6773244 59.1142747,88.5007708 L56,88.5 C54.6745166,88.5 53.5899613,87.4684641 53.5053177,86.1643757 L53.5,86 C53.5,84.6745166 54.5315359,83.5899613 55.8356243,83.5053177 L56,83.5 L59.1141829,83.5002289 C59.0386186,84.3233508 59,85.1571654 59,86 Z M57.767767,54.232233 L68.7575411,65.2217521 C67.472957,66.2889237 66.2889237,67.472957 65.2217521,68.7575411 L54.232233,57.767767 L57.767767,54.232233 Z M114.232233,54.232233 L117.767767,57.767767 L106.778248,68.7575411 C105.711352,67.4732884 104.527654,66.2895347 103.243453,65.2225781 L114.232233,54.232233 Z M86,53.5 C87.3254834,53.5 88.4100387,54.5315359 88.4946823,55.8356243 L88.5,56 L88.5007708,59.1142747 C87.6773244,59.0386499 86.8431758,59 86,59 C85.1571654,59 84.3233508,59.0386186 83.5002289,59.1141829 L83.5,56 C83.5,54.7297451 84.4473655,53.6807592 85.6740877,53.5210511 L85.8356243,53.5053177 L86,53.5 Z" id="Combined-Shape" fill="#FFFFFF" fill-rule="nonzero"></path>
                <path d="M86,73 C93.1682931,73 99,78.8317069 99,86 C99,93.1682931 93.1682931,99 86,99 C78.8317069,99 73,93.1682931 73,86 C73,78.8317069 78.8317069,73 86,73 L86,73 Z M64,82.4402832 L64,89.560473 C64,90.1127577 64.4477153,90.560473 65,90.560473 L68.5237179,90.560473 L68.5237179,90.560473 C68.947202,92.1825963 69.5937715,93.7139714 70.4233466,95.1258615 L67.9262528,97.6235876 C67.5359685,98.0142449 67.5359873,98.6473041 67.9262948,99.0379382 L72.9612344,104.073555 C73.3516789,104.464159 73.9848438,104.464202 74.3753944,104.073703 C74.3754123,104.073686 74.3754301,104.073668 74.3753944,104.073596 L76.873161,101.575787 L76.873161,101.575787 C78.1852056,102.347902 79.6023649,102.957427 81.0989275,103.379406 L81.0989275,107 C81.0989275,107.552285 81.5466428,108 82.0989275,108 L89.2189605,108 C89.7712453,108 90.2189605,107.552285 90.2189605,107 L90.2189605,103.558634 L90.2189605,103.558634 C91.967345,103.138168 93.6159082,102.463606 95.1260828,101.575787 L97.6245222,104.07368 C98.0151074,104.46412 98.6482493,104.464064 99.0387656,104.073555 L104.073705,99.0379382 C104.464129,98.647355 104.46411,98.0142314 104.073664,97.623671 L101.575897,95.1258615 L101.575897,95.1258615 C102.405472,93.7139714 103.052798,92.1825963 103.476282,90.560473 L107,90.560473 C107.552285,90.560473 108,90.1127577 108,89.560473 L108,82.4402832 C108,81.8879985 107.552285,81.4402832 107,81.4402832 L103.476282,81.4402832 L103.476282,81.4402832 C103.052798,79.8174037 102.405472,78.2860286 101.575897,76.8733823 L104.073664,74.3755727 C104.464168,73.9850377 104.464168,73.3518821 104.073664,72.961347 L99.038807,67.9264037 C98.6482426,67.5359752 98.0151326,67.5359378 97.6245222,67.9263203 L95.1260828,70.4242133 L95.1260828,70.4242133 C93.714217,69.5938676 92.1821119,68.947287 90.5600165,68.5230394 L90.5600165,65 C90.5600165,64.4477153 90.1123012,64 89.5600165,64 L82.4399835,64 C81.8876988,64 81.4399835,64.4477153 81.4399835,65 L81.4399835,68.5230394 L81.4399835,68.5230394 C79.8171319,68.947287 78.285783,69.5938676 76.8739172,70.4242133 L74.3754778,67.9263203 C73.9848674,67.5359378 73.3517574,67.5359752 72.961193,67.9264037 L67.9263362,72.961347 C67.5358322,73.3518821 67.5358322,73.9850377 67.9263362,74.3755727 L70.4241028,76.8733823 L70.4241028,76.8733823 C69.5937715,78.2860286 68.947202,79.8174037 68.5237179,81.4402832 L65,81.4402832 C64.4477153,81.4402832 64,81.8879985 64,82.4402832 Z" id="Fill-52" fill="#FFA200"></path>
            </g>
        </g>
    </g>
</svg>