<?xml version="1.0" encoding="UTF-8"?>
<svg width="166px" height="166px" viewBox="0 0 166 166" version="1.1" xmlns="http://www.w3.org/2000/svg" xmlns:xlink="http://www.w3.org/1999/xlink">
    <!-- Generator: Sketch 57.1 (83088) - https://sketch.com -->
    <title>Group 2</title>
    <desc>Created with Sketch.</desc>
    <defs>
        <linearGradient x1="28.5862199%" y1="94.1429782%" x2="77.6308358%" y2="7.3842244%" id="linearGradient-1">
            <stop stop-color="#244575" offset="0%"></stop>
            <stop stop-color="#124980" offset="52.209696%"></stop>
            <stop stop-color="#2766A1" offset="100%"></stop>
        </linearGradient>
    </defs>
    <g id="assects" stroke="none" stroke-width="1" fill="none" fill-rule="evenodd">
        <g id="Group-2">
            <circle id="Oval" fill="url(#linearGradient-1)" cx="83" cy="83" r="83"></circle>
            <path d="M89,53 L53,53 C50.790861,53 49,54.790861 49,57 L49,97.8793858 C49,100.07997 50.7775304,101.867267 52.9780814,101.879326 L75,102 L75,102 L75,98.0107527 L53,98.0107527 L53,56.9892473 L89,56.9892473 L89,76.9354839 L93,76.9354839 L93,57 C93,54.790861 91.209139,53 89,53 Z" id="Combined-Shape" fill="#FFFFFF"></path>
            <polygon id="Fill-61" fill="#FFA200" points="58 68 62 68 62 64 58 64"></polygon>
            <polygon id="Fill-61" fill="#FFA200" points="58 77 62 77 62 73 58 73"></polygon>
            <polygon id="Fill-61" fill="#FFA200" points="58 87 62 87 62 83 58 83"></polygon>
            <polygon id="Fill-65" fill="#FFA200" points="65 68 84 68 84 64 65 64"></polygon>
            <polygon id="Fill-65" fill="#FFA200" points="65 77 84 77 84 73 65 73"></polygon>
            <polygon id="Fill-65" fill="#FFA200" points="65 87 75 87 75 83 65 83"></polygon>
            <path d="M83,114 L113,114 L113,84 L83,84 L83,114 Z M83,80 C80.4074074,80 79,81.4074074 79,84 L79,90 L79,94 L79,114 C79,116.592593 80.4074074,118 83,118 L113,118 C115.592593,118 117,116.592593 117,114 L117,84 C117,81.4074074 115.592593,80 113,80 L83,80 Z" id="Fill-73" fill="#FFFFFF"></path>
            <path d="M96.5091593,106.041808 L107,95.4897959 C107.774512,94.710768 107.774512,93.4524973 107,92.6734694 C106.231284,91.9002707 104.981315,91.8966371 104.208116,92.6653534 C104.205403,92.6680509 104.202697,92.6707562 104.2,92.6734694 L95.8,101.122449 L95.8,101.122449 L93,98.3061224 C92.2312837,97.5329238 90.9813146,97.5292902 90.2081159,98.2980065 C90.2054028,98.300704 90.2026974,98.3034093 90.2,98.3061224 C89.4254882,99.0851504 89.4254882,100.343421 90.2,101.122449 L95.0908407,106.041808 C95.4802281,106.433466 96.1133904,106.435306 96.5050483,106.045919 C96.5064226,106.044552 96.507793,106.043182 96.5091593,106.041808 Z" id="Fill-17" fill="#FFA200"></path>
        </g>
    </g>
</svg>