<?xml version="1.0" encoding="UTF-8"?>
<svg width="166px" height="166px" viewBox="0 0 166 166" version="1.1" xmlns="http://www.w3.org/2000/svg" xmlns:xlink="http://www.w3.org/1999/xlink">
    <!-- Generator: Sketch 57.1 (83088) - https://sketch.com -->
    <title>Group 2 Copy 5</title>
    <desc>Created with Sketch.</desc>
    <defs>
        <linearGradient x1="28.5862199%" y1="94.1429782%" x2="77.6308358%" y2="7.3842244%" id="linearGradient-1">
            <stop stop-color="#244575" offset="0%"></stop>
            <stop stop-color="#124980" offset="52.209696%"></stop>
            <stop stop-color="#2766A1" offset="100%"></stop>
        </linearGradient>
    </defs>
    <g id="assects" stroke="none" stroke-width="1" fill="none" fill-rule="evenodd">
        <g id="Group-2-Copy-5">
            <circle id="Oval" fill="url(#linearGradient-1)" cx="83" cy="83" r="83"></circle>
            <g id="Group-2-Copy-3" transform="translate(40.000000, 50.000000)" fill-rule="nonzero">
                <g id="Group-6">
                    <path d="M19.4764706,25.0133333 C22.0964038,25.0133333 24.6085078,25.2569969 26.9331245,25.8201085 C26.2564832,27.5657661 25.8629981,29.4492667 25.8069507,31.4162971 C23.4265035,30.5965176 20.7508016,30.3733333 18.5911765,30.3733333 C13.4269608,30.3733333 5.31176471,31.6495238 5.31176471,39.3066667 L27.5082062,39.3066641 C28.1539006,40.6268523 28.9669378,41.8519444 29.920045,42.9549523 C28.8937706,43.4683513 27.9025004,44.0402804 26.9507189,44.6663031 L0,44.6666667 L0,39.7533333 C0,33.8913367 3.01995518,29.5975738 7.96094907,27.2397276 C11.2943683,25.6490173 15.2447639,25.0133333 19.4764706,25.0133333 Z M66.5235294,25.0133333 C70.7552361,25.0133333 74.7056317,25.6490173 78.0390509,27.2397276 C82.9800448,29.5975738 86,33.8913367 86,39.7533333 L86,44.6666667 L59.0491107,44.6665734 C58.0973085,44.0405836 57.1060151,43.4686915 56.0797146,42.9553338 C57.032911,41.8521843 57.8460042,40.6270032 58.491734,39.306759 L80.6882353,39.3066667 C80.6882353,31.6495238 72.0320261,30.3733333 66.5235294,30.3733333 C64.6215213,30.3733333 62.3442349,30.5254841 60.1775892,31.0399277 C60.0855446,29.2090392 59.7003261,27.4542026 59.0678323,25.8204424 C61.3914922,25.2569969 63.9035962,25.0133333 66.5235294,25.0133333 Z M19.4764706,0 C25.3436839,0 30.1,4.79950748 30.1,10.72 C30.1,16.6404925 25.3436839,21.44 19.4764706,21.44 C13.6092573,21.44 8.85294118,16.6404925 8.85294118,10.72 C8.85294118,4.79950748 13.6092573,0 19.4764706,0 Z M66.5235294,3.55271368e-15 C72.3907427,3.55271368e-15 77.1470588,4.79950748 77.1470588,10.72 C77.1470588,16.6404925 72.3907427,21.44 66.5235294,21.44 C60.6563161,21.44 55.9,16.6404925 55.9,10.72 C55.9,4.79950748 60.6563161,3.55271368e-15 66.5235294,3.55271368e-15 Z M19.4764706,5.36 C16.5428639,5.36 14.1647059,7.75975374 14.1647059,10.72 C14.1647059,13.6802463 16.5428639,16.08 19.4764706,16.08 C22.4100772,16.08 24.7882353,13.6802463 24.7882353,10.72 C24.7882353,7.75975374 22.4100772,5.36 19.4764706,5.36 Z M66.5235294,5.36 C63.5899228,5.36 61.2117647,7.75975374 61.2117647,10.72 C61.2117647,13.6802463 63.5899228,16.08 66.5235294,16.08 C69.4571361,16.08 71.8352941,13.6802463 71.8352941,10.72 C71.8352941,7.75975374 69.4571361,5.36 66.5235294,5.36 Z" id="Combined-Shape" fill="#FFFFFF"></path>
                    <path d="M43.86,45.4847375 C48.5313646,45.4847375 52.8921908,46.1727072 56.5719393,47.8942551 C62.0262832,50.4460367 65.36,55.0929662 65.36,61.4371184 L65.36,66.7545788 L22.36,66.7545788 L22.36,61.4371184 C22.36,55.0929662 25.6937168,50.4460367 31.1480607,47.8942551 C34.8278092,46.1727072 39.1886354,45.4847375 43.86,45.4847375 Z M43.86,50.8021978 C37.5891667,50.8021978 27.735,52.3214722 27.735,61.4371184 L59.985,61.4371184 C59.985,52.3214722 50.1308333,50.8021978 43.86,50.8021978 Z M43.86,18.8974359 C50.7865712,18.8974359 56.4016667,24.4524214 56.4016667,31.3048433 C56.4016667,38.1572652 50.7865712,43.7122507 43.86,43.7122507 C36.9334288,43.7122507 31.3183333,38.1572652 31.3183333,31.3048433 C31.3183333,24.4524214 36.9334288,18.8974359 43.86,18.8974359 Z M43.86,24.2148962 C39.9019593,24.2148962 36.6933333,27.3891737 36.6933333,31.3048433 C36.6933333,35.220513 39.9019593,38.3947904 43.86,38.3947904 C47.8180407,38.3947904 51.0266667,35.220513 51.0266667,31.3048433 C51.0266667,27.3891737 47.8180407,24.2148962 43.86,24.2148962 Z" id="Combined-Shape" fill="#FFA200"></path>
                </g>
            </g>
        </g>
    </g>
</svg>