<?xml version="1.0" encoding="UTF-8"?>
<svg width="166px" height="166px" viewBox="0 0 166 166" version="1.1" xmlns="http://www.w3.org/2000/svg" xmlns:xlink="http://www.w3.org/1999/xlink">
    <!-- Generator: Sketch 57.1 (83088) - https://sketch.com -->
    <title>Group 18</title>
    <desc>Created with Sketch.</desc>
    <defs>
        <linearGradient x1="28.5862199%" y1="94.1429782%" x2="77.6308358%" y2="7.3842244%" id="linearGradient-1">
            <stop stop-color="#244575" offset="0%"></stop>
            <stop stop-color="#124980" offset="52.209696%"></stop>
            <stop stop-color="#2766A1" offset="100%"></stop>
        </linearGradient>
    </defs>
    <g id="assects" stroke="none" stroke-width="1" fill="none" fill-rule="evenodd">
        <g id="Group-18">
            <g id="Group-2-Copy-2" fill="url(#linearGradient-1)">
                <g id="Group-4">
                    <circle id="Oval" cx="83" cy="83" r="83"></circle>
                </g>
            </g>
            <g id="Group-82-Copy" transform="translate(50.000000, 48.000000)">
                <path d="M62.8409025,65.2156719 L55.88085,65.2156719 L55.88085,52.5449785 L55.88085,45.4435412 L62.8409025,45.4435412 L62.8409025,65.2156719 Z M51.2573824,40.8198334 L20.8592388,40.8198334 C19.1786083,40.8198334 17.8112177,42.187295 17.8112177,43.8680128 L17.8112177,44.4546457 L4.41587624,44.4546457 L4.41587624,52.5449785 C4.41587624,55.6677152 5.92890601,60.0371191 13.1380479,63.1188204 C17.6667344,65.0549981 23.7072948,66.1213407 30.148941,66.1213407 C36.0380829,66.1213407 41.5891337,65.2278091 45.9594664,63.5944844 L45.9594664,58.5898986 C45.7519883,58.6869964 45.5445102,58.7806265 45.3416556,58.867899 C41.4319358,60.5387914 35.8941775,61.4976328 30.148941,61.4976328 C24.4025487,61.4976328 18.8647904,60.5387914 14.9556486,58.867899 C12.2566994,57.7142839 9.03934384,55.6804304 9.03934384,52.5449785 L9.03934384,49.0783536 L17.8915505,49.0783536 C19.2098167,52.3137931 22.932286,56.3491342 30.982899,56.3491342 L37.6152633,56.3491342 L37.6152633,51.7254263 L30.982899,51.7254263 C25.4376276,51.7254263 23.2703771,49.4569196 22.4346853,47.8923725 L22.4346853,45.4435412 L51.2573824,45.4435412 L51.2573824,67.8393798 C51.2573824,68.9439493 52.1528129,69.8393798 53.2573824,69.8393798 L65.4643701,69.8393798 C66.5689396,69.8393798 67.4643701,68.9439493 67.4643701,67.8393798 L67.4643701,40.8198334 L67.4643701,40.8198334 L55.88085,40.8198334 L51.2573824,40.8198334 Z" id="Fill-398" fill="#FFFFFF"></path>
                <path d="M4.35407822,15.8333333 C4.35407822,9.49544349 9.50331998,4.3395343 15.8330612,4.3395343 C22.1628024,4.3395343 27.3125884,9.49544349 27.3125884,15.8333333 C27.3125884,22.1712232 22.1628024,27.3271324 15.8330612,27.3271324 C9.50331998,27.3271324 4.35407822,22.1712232 4.35407822,15.8333333 M31.6666667,15.8333333 C31.6666667,7.10273276 24.5635323,0 15.8330612,0 C7.1025901,0 0,7.10273276 0,15.8333333 C0,24.5639339 7.1025901,31.6666667 15.8330612,31.6666667 C24.5635323,31.6666667 31.6666667,24.5639339 31.6666667,15.8333333" id="Fill-399" fill="#FFFFFF"></path>
                <path d="M17.3430964,25.1881365 C17.4022031,25.1290268 17.4314802,25.0478199 17.4314802,24.9450683 L17.3872883,23.6192419 C17.3872883,23.5601321 17.4237467,23.5159379 17.4983205,23.4866592 C18.7356943,23.2364095 19.7156501,22.7099459 20.4376356,21.906716 C21.1579638,21.1034862 21.5197852,20.0986202 21.5197852,18.8904608 C21.5197852,17.8739939 21.2214897,17.0122067 20.6248988,16.3050992 C20.0283079,15.5979918 19.2914076,15.1046738 18.4153028,14.824593 C17.5386457,14.5445122 17.0409342,14.3820984 16.9232732,14.3384566 C16.0990939,14.0732913 15.4875882,13.8556348 15.0904133,13.6865919 C14.6921337,13.5175491 14.397705,13.3407722 14.2054701,13.1562614 C14.0148925,12.9723029 13.9187751,12.7469124 13.9187751,12.4822996 C13.9187751,12.1436614 14.0513508,11.8784961 14.3165023,11.6868037 C14.5811015,11.4956637 14.9423704,11.3995413 15.398652,11.3995413 C16.0471684,11.3995413 16.563109,11.5801851 16.9459215,11.9409204 C17.3292864,12.3022081 17.5198641,12.7032707 17.5198641,13.1452128 L17.5198641,13.1673099 C17.5198641,13.2706139 17.550246,13.3512683 17.6082479,13.4103781 C17.667907,13.4694879 17.7485573,13.4987665 17.8524083,13.4987665 L21.0999619,13.4987665 C21.2021558,13.4987665 21.2844632,13.4694879 21.3424651,13.4103781 C21.4021242,13.3512683 21.4308489,13.2706139 21.4308489,13.1673099 L21.4308489,12.9684359 C21.4308489,11.7751921 21.0706848,10.744362 20.3486993,9.87484086 C19.6272662,9.0058721 18.668854,8.40925019 17.4756722,8.08497513 C17.4176703,8.07061201 17.3872883,8.03359935 17.3872883,7.97448959 L17.4314802,6.33930362 C17.4314802,6.23599964 17.4022031,6.1553452 17.3430964,6.095683 C17.2850945,6.0376781 17.2038919,6.007847 17.1005933,6.007847 L14.1397347,6.007847 C14.0364361,6.007847 13.9552334,6.0376781 13.8972315,6.095683 C13.8375724,6.1553452 13.8088477,6.23599964 13.8088477,6.33930362 L13.8530396,7.90819827 C13.8530396,7.98222358 13.8226576,8.02641779 13.7641034,8.04078091 C12.6294758,8.3357773 11.7196747,8.87715644 11.0346999,9.66491833 C10.35083,10.4532327 10.0077902,11.4072753 10.0077902,12.5264938 C10.0077902,13.9257931 10.482301,14.9941883 11.4329796,15.7305744 C12.3831059,16.467513 13.5508773,17.0564009 14.9351892,17.498343 L15.575972,17.6966646 C16.3128723,17.9181881 16.8243938,18.1098805 17.1110888,18.2711894 C17.3994411,18.4336031 17.5425124,18.6772237 17.5425124,19.0009464 C17.5425124,19.2810272 17.4281659,19.5351439 17.1994727,19.7632966 C16.9718843,19.9920016 16.5923862,20.1058017 16.0626356,20.1058017 C15.3699272,20.1058017 14.8175282,19.9478074 14.4054386,19.6301615 C13.9922441,19.3141729 13.7861993,18.9495706 13.7861993,18.5369071 L13.7861993,18.4043245 C13.7861993,18.3010205 13.7569222,18.220366 13.6972631,18.1612563 C13.6392612,18.1026989 13.5569537,18.0728678 13.4547599,18.0728678 L10.1845579,18.0728678 C10.0812593,18.0728678 10.0000566,18.1026989 9.94205474,18.1612563 C9.88239565,18.220366 9.85311851,18.3010205 9.85311851,18.4043245 L9.85311851,18.713684 C9.85311851,19.9063754 10.1983679,20.9162132 10.8910762,21.7409877 C11.5837845,22.5663147 12.541092,23.1331055 13.7641034,23.442465 C13.8226576,23.4573806 13.8530396,23.5010224 13.8530396,23.5750477 L13.8088477,24.9450683 C13.8088477,25.0478199 13.8375724,25.1290268 13.8972315,25.1881365 C13.9552334,25.2466939 14.0364361,25.276525 14.1397347,25.276525 L17.1005933,25.276525 C17.2038919,25.276525 17.2850945,25.2466939 17.3430964,25.1881365" id="Fill-400" fill="#FFA200"></path>
                <path d="M53.3333333,6.66666667 C58.387899,6.66666667 62.5,10.7787677 62.5,15.8333333 C62.5,20.887899 58.387899,25 53.3333333,25 C48.2787677,25 44.1666667,20.887899 44.1666667,15.8333333 C44.1666667,10.7787677 48.2787677,6.66666667 53.3333333,6.66666667 L53.3333333,6.66666667 Z M37.5,13.551719 L37.5,18.1154919 C37.5,18.6677767 37.9477153,19.1154919 38.5,19.1154919 L40.755706,19.1154919 L40.755706,19.1154919 C41.0604863,20.2829291 41.5258204,21.3850552 42.1228631,22.4011882 L40.5238913,24.0005649 C40.1336071,24.3912221 40.1336258,25.0242814 40.5239333,25.4149155 L43.7511824,28.6425985 C44.1416269,29.0332026 44.7747918,29.0332452 45.1653424,28.6427471 C45.1653602,28.6427293 45.1653781,28.6427114 45.1653424,28.6426399 L46.764775,27.0431799 L46.764775,27.0431799 C47.7090495,27.5988691 48.7289747,28.0375425 49.8060463,28.3412394 L49.8060463,30.6666667 C49.8060463,31.2189514 50.2537616,31.6666667 50.8060463,31.6666667 L55.3697064,31.6666667 C55.9219912,31.6666667 56.3697064,31.2189514 56.3697064,30.6666667 L56.3697064,28.470229 L56.3697064,28.470229 C57.6280134,28.1676206 58.8144794,27.6821408 59.9013474,27.0431799 L61.5012409,28.6427234 C61.891826,29.0331635 62.524968,29.0331076 62.9154842,28.6425985 L66.1427334,25.4149155 C66.5331569,25.0243322 66.5331383,24.3912086 66.1426919,24.0006483 L64.5432593,22.4011882 L64.5432593,22.4011882 C65.140302,21.3850552 65.6061804,20.2829291 65.9109606,19.1154919 L68.1666667,19.1154919 C68.7189514,19.1154919 69.1666667,18.6677767 69.1666667,18.1154919 L69.1666667,13.551719 C69.1666667,12.9994343 68.7189514,12.551719 68.1666667,12.551719 L65.9109606,12.551719 L65.9109606,12.551719 C65.6061804,11.3837375 65.140302,10.2816115 64.5432593,9.2649342 L66.1426919,7.66547412 C66.5331959,7.27493907 66.5331959,6.64178346 66.1426919,6.2512484 L62.9155257,3.02402673 C62.5249613,2.63359818 61.8918513,2.63356084 61.5012409,3.02394331 L59.9013474,4.62348681 L59.9013474,4.62348681 C58.8852319,4.02588958 57.7825805,3.56054747 56.6151634,3.25521773 L56.6151634,1 C56.6151634,0.44771525 56.1674481,-1.01453063e-16 55.6151634,0 L51.0515033,0 C50.4992185,1.08250786e-15 50.0515033,0.44771525 50.0515033,1 L50.0515033,3.25521773 L50.0515033,3.25521773 C48.8835419,3.56054747 47.7814348,4.02588958 46.7653192,4.62348681 L45.1654258,3.02394331 C44.7748154,2.63356084 44.1417053,2.63359818 43.751141,3.02402673 L40.5239748,6.2512484 C40.1334707,6.64178346 40.1334707,7.27493907 40.5239748,7.66547412 L42.1234074,9.2649342 L42.1234074,9.2649342 C41.5258204,10.2816115 41.0604863,11.3837375 40.755706,12.551719 L38.5,12.551719 C37.9477153,12.551719 37.5,12.9994343 37.5,13.551719 Z" id="Fill-52-Copy-2" fill="#FFA200"></path>
            </g>
        </g>
    </g>
</svg>