<?xml version="1.0" encoding="UTF-8"?>
<svg width="166px" height="166px" viewBox="0 0 166 166" version="1.1" xmlns="http://www.w3.org/2000/svg" xmlns:xlink="http://www.w3.org/1999/xlink">
    <!-- Generator: Sketch 57.1 (83088) - https://sketch.com -->
    <title>Group 2 Copy 3</title>
    <desc>Created with Sketch.</desc>
    <defs>
        <linearGradient x1="28.5862199%" y1="94.1429782%" x2="77.6308358%" y2="7.3842244%" id="linearGradient-1">
            <stop stop-color="#244575" offset="0%"></stop>
            <stop stop-color="#124980" offset="52.209696%"></stop>
            <stop stop-color="#2766A1" offset="100%"></stop>
        </linearGradient>
    </defs>
    <g id="assects" stroke="none" stroke-width="1" fill="none" fill-rule="evenodd">
        <g id="Group-2-Copy-3">
            <circle id="Oval" fill="url(#linearGradient-1)" cx="83" cy="83" r="83"></circle>
            <g id="Group-6" transform="translate(42.000000, 48.000000)" fill-rule="nonzero">
                <path d="M18.1176471,23.52 C21.6588446,23.52 24.9882722,24.003719 27.8786151,25.1897576 C26.7066663,26.6115332 25.7612569,28.225783 25.0972652,29.9784222 C22.6412163,28.846225 19.6402854,28.56 17.2941176,28.56 C12.4901961,28.56 4.94117647,29.76 4.94117647,36.96 L24.0266328,36.9596898 C24.1248707,38.7250061 24.4924489,40.4184434 25.0889508,41.9995852 L0,42 L0,37.38 C0,31.8679733 2.80926064,27.8305545 7.40553402,25.6134752 C10.5063891,24.1177327 14.1811757,23.52 18.1176471,23.52 Z M63.8823529,23.52 C67.8188243,23.52 71.4936109,24.1177327 74.594466,25.6134752 C79.1907394,27.8305545 82,31.8679733 82,37.38 L82,42 L56.9110492,41.9995852 C57.5075511,40.4184434 57.8751293,38.7250061 57.9733672,36.9596898 L77.0588235,36.96 C77.0588235,29.76 69.0065359,28.56 63.8823529,28.56 C61.7418599,28.56 59.0904327,28.7693918 56.7284313,29.538047 C56.0779446,27.9553362 55.1946866,26.491919 54.1216616,25.1908277 C57.0117278,24.003719 60.3411554,23.52 63.8823529,23.52 Z M18.1176471,0 C23.5755199,0 28,4.51296972 28,10.08 C28,15.6470303 23.5755199,20.16 18.1176471,20.16 C12.6597742,20.16 8.23529412,15.6470303 8.23529412,10.08 C8.23529412,4.51296972 12.6597742,0 18.1176471,0 Z M63.8823529,0 C69.3402258,0 73.7647059,4.51296972 73.7647059,10.08 C73.7647059,15.6470303 69.3402258,20.16 63.8823529,20.16 C58.4244801,20.16 54,15.6470303 54,10.08 C54,4.51296972 58.4244801,0 63.8823529,0 Z M18.1176471,5.04 C15.3887106,5.04 13.1764706,7.29648486 13.1764706,10.08 C13.1764706,12.8635151 15.3887106,15.12 18.1176471,15.12 C20.8465835,15.12 23.0588235,12.8635151 23.0588235,10.08 C23.0588235,7.29648486 20.8465835,5.04 18.1176471,5.04 Z M63.8823529,5.04 C61.1534165,5.04 58.9411765,7.29648486 58.9411765,10.08 C58.9411765,12.8635151 61.1534165,15.12 63.8823529,15.12 C66.6112894,15.12 68.8235294,12.8635151 68.8235294,10.08 C68.8235294,7.29648486 66.6112894,5.04 63.8823529,5.04 Z" id="Combined-Shape" fill="#FFFFFF"></path>
                <path d="M41,49 C45.3454554,49 49.402038,49.6468969 52.8250599,51.2656658 C57.8988681,53.6651023 61,58.0346032 61,64 L61,69 L21,69 L21,64 C21,58.0346032 24.1011319,53.6651023 29.1749401,51.2656658 C32.597962,49.6468969 36.6545446,49 41,49 Z M41.2202881,54.0006808 L41,54 C35.1666667,54 26,55.4285714 26,64 L56,64 C56,55.5357143 47.0610677,54.0368304 41.2202881,54.0006808 Z M41,24 C47.4433221,24 52.6666667,29.2233446 52.6666667,35.6666667 C52.6666667,42.1099887 47.4433221,47.3333333 41,47.3333333 C34.5566779,47.3333333 29.3333333,42.1099887 29.3333333,35.6666667 C29.3333333,29.2233446 34.5566779,24 41,24 Z M41,29 C37.3181017,29 34.3333333,31.9847683 34.3333333,35.6666667 C34.3333333,39.348565 37.3181017,42.3333333 41,42.3333333 C44.6818983,42.3333333 47.6666667,39.348565 47.6666667,35.6666667 C47.6666667,31.9847683 44.6818983,29 41,29 Z" id="Combined-Shape" fill="#FFA200"></path>
            </g>
        </g>
    </g>
</svg>