<?xml version="1.0" encoding="UTF-8"?>
<svg width="185px" height="48px" viewBox="0 0 185 48" version="1.1" xmlns="http://www.w3.org/2000/svg" xmlns:xlink="http://www.w3.org/1999/xlink">
    <!-- Generator: Sketch 57.1 (83088) - https://sketch.com -->
    <title>Logo_footer</title>
    <desc>Created with Sketch.</desc>
    <g id="Design" stroke="none" stroke-width="1" fill="none" fill-rule="evenodd">
        <g id="Roosevelt-Microsite-D2" transform="translate(-47.000000, -7579.000000)">
            <g id="Group-27" transform="translate(0.000000, 6714.000000)">
                <g id="Footer">
                    <g id="Logo_footer" transform="translate(47.000000, 865.000000)">
                        <text id="Powered-by" font-family="Gotham-Book, Gotham" font-size="14" font-weight="300" fill="#969696">
                            <tspan x="27" y="11">Powered by</tspan>
                        </text>
                        <g id="Group-2" transform="translate(0.000000, 11.000000)" fill="#FFFFFF">
                            <path d="M18.7212464,10.516499 C18.7212464,16.0313419 15.0994349,19.8787107 9.69824347,20.8407444 L17.7388117,32.9596116 C18.6603941,34.3712582 19.5196579,35.2046123 20.7469681,35.2046123 C21.913426,35.2046123 22.5879334,34.5635118 23.1400031,33.8580715 L24,34.7557653 C23.5087826,35.5247795 22.4654956,37 20.316603,37 C17.9851535,37 16.9418665,35.717799 15.8362609,33.9867511 L7.36532763,21.0965719 L2.08730716,21.0965719 L2.08730716,36.4224734 L0,36.4224734 L0,0 L6.9364289,0 C14.363342,0 18.7212464,4.10396224 18.7212464,10.516499 L18.7212464,10.516499 Z M6.44594471,19.365524 C12.3376203,19.365524 16.5107683,16.0313419 16.5107683,10.516499 C16.5107683,5.13033578 13.1352986,1.98764129 6.75167252,1.98764129 L2.08730716,1.98764129 L2.08730716,19.365524 L6.44594471,19.365524 Z" id="Fill-46"></path>
                            <path d="M85.9336822,30.9352684 C85.9336822,28.0963267 82.1338869,26.6121243 80.1336594,25.5802723 C78.2664088,24.6123812 74,22.676599 74,18.9352684 C74,15.4513229 76.7996815,13 81.399727,13 C84.4000683,13 86.7323399,14.095813 87.1997497,14.3547393 L87.1997497,16.2905214 C86.1327494,15.7094786 83.7335912,14.7415875 81.5342964,14.7415875 C77.9343647,14.7415875 76.1332044,16.5479065 76.1332044,18.8065759 C76.1332044,21.5800154 79.5340689,22.9355253 81.4674099,23.9034164 C83.3330679,24.8065759 88,26.806319 88,30.8058053 C88,34.6126381 84.9335684,37 80.2666363,37 C77.0672278,37 74.6664771,35.7739532 74.1337732,35.4502954 L74.1337732,33.4505523 C74.7333637,33.7094786 77.4008645,35.1929104 80.2666363,35.1929104 C83.7335912,35.1929104 85.9336822,33.5160545 85.9336822,30.9352684" id="Fill-48"></path>
                            <path d="M102.898266,13 C107.851485,13 112,16.9676111 112,23.2907598 L112,24.345235 L93.980696,24.345235 L93.980696,24.7169672 C94.1049517,30.5439794 98.3155948,34.2642627 103.330942,34.2642627 C107.727969,34.2642627 110.637624,32.3426594 111.38094,31.9079845 L111.38094,33.7681262 C110.76188,34.1405988 107.913613,36 103.145298,36 C97.0774749,36 92,31.4125885 92,24.5311011 C92,17.7118158 97.1396028,13 102.898266,13 L102.898266,13 Z M110.14282,22.7953638 C110.14282,18.083548 106.922525,14.7357373 102.77401,14.7357373 C97.6965349,14.7357373 94.6618838,18.7655505 94.1049517,22.7953638 L110.14282,22.7953638 Z" id="Fill-50"></path>
                            <polygon id="Fill-52" points="131.772808 13 134 13 125.548252 36 123.450966 36 115 13 117.227192 13 124.499609 33.3290021"></polygon>
                            <path d="M145.898266,13 C150.850745,13 155,16.9676111 155,23.2907598 L155,24.345235 L136.979956,24.345235 L136.979956,24.7169672 C137.104212,30.5439794 141.315595,34.2642627 146.330942,34.2642627 C150.727229,34.2642627 153.637624,32.3426594 154.38094,31.9079845 L154.38094,33.7681262 C153.76188,34.1405988 150.912873,36 146.145298,36 C140.077475,36 135,31.4125885 135,24.5311011 C135,17.7118158 140.139603,13 145.898266,13 L145.898266,13 Z M153.142081,22.7953638 C153.142081,18.083548 149.921785,14.7357373 145.77327,14.7357373 C140.696535,14.7357373 137.661144,18.7655505 137.104212,22.7953638 L153.142081,22.7953638 Z" id="Fill-54"></path>
                            <path d="M164.017753,32.271285 C164.017753,34.2520785 165.15354,35.2107978 166.414353,35.2107978 C167.675167,35.2107978 168.746934,34.6352609 169,34.5085512 L169,36.2328719 C168.621907,36.4252264 167.675167,37 166.035507,37 C163.766193,37 162,35.5306253 162,32.3346399 L162,0 L164.017753,0 L164.017753,32.271285 Z" id="Fill-56"></path>
                            <path d="M176.566873,30.2903581 C176.566873,34.0176896 178.433896,35.2606281 180.686933,35.2606281 C182.68237,35.2606281 184.420208,34.2662773 185,33.9560992 L185,35.7578035 C184.549393,36.0063912 182.810786,37 180.300149,37 C177.402727,37 174.506844,35.5708062 174.506844,30.2280257 L174.506844,16.3130506 L170,16.3130506 L170.579023,14.5729366 L174.506844,14.5729366 L174.506844,6 L176.566873,6 L176.566873,14.5729366 L184.870816,14.5729366 L184.162608,16.3130506 L176.566873,16.3130506 L176.566873,30.2903581 Z" id="Fill-58"></path>
                            <path d="M31.545456,13 C27.7788905,13 24.435661,14.7971899 22.3272235,17.5758185 C21.0205017,19.0087938 20.4173417,21.3739494 20.4345749,21.3739494 C20.1535997,22.3680761 20,23.4166856 20,24.4996268 C20,30.8517377 25.1684441,36 31.545456,36 C36.8158005,36 41.2574556,32.4824934 42.6413518,27.6760554 C44.8292116,16.7369309 36.4936156,13 31.545456,13 M31.545456,34.1192199 C26.2121731,34.1192199 21.8889022,29.8113379 21.8889022,24.4996268 C21.8889022,19.1879158 26.2121731,14.8815264 31.545456,14.8815264 C36.8772404,14.8815264 41.2012605,19.1879158 41.2012605,24.4996268 C41.2012605,24.6630756 41.1345758,25.8594607 40.7457062,27.4237921 C39.5034214,31.3062595 35.8544908,34.1192199 31.545456,34.1192199" id="Fill-60"></path>
                            <path d="M49.3586482,27.6760554 C50.7425444,32.4824934 55.1841995,36 60.454544,36 C66.8315559,36 72,30.8517377 72,24.4996268 C72,23.4159393 71.8464003,22.3680761 71.5646758,21.3739494 C71.5826583,21.3739494 70.978749,19.0087938 69.6720273,17.5758185 C67.564339,14.7971899 64.2211095,13 60.454544,13 C55.5063844,13 47.1707884,16.7369309 49.3586482,27.6760554 M51.2535446,27.4237921 C50.864675,25.8594607 50.7979902,24.6630756 50.7979902,24.4996268 C50.7979902,19.1879158 55.1220104,14.8815264 60.454544,14.8815264 C65.7878269,14.8815264 70.1110978,19.1879158 70.1110978,24.4996268 C70.1110978,29.8113379 65.7878269,34.1192199 60.454544,34.1192199 C56.1455092,34.1192199 52.4965786,31.3062595 51.2535446,27.4237921" id="Fill-62"></path>
                            <path d="M47.8348884,16.3288822 C47.7489152,16.2875094 46.8684573,16.00786 46.0025842,16.0001983 C45.1559015,15.9917705 44.3215007,16.2545644 44.2524151,16.2882756 C43.4065,16.7066006 42.3648424,17.1617014 42.0570276,19.5912041 C41.9833362,23.7407428 41.9050392,22.7033581 42.3502576,27 C43.2974983,26.4039252 43.6920539,24.7436501 43.5907284,21.7770671 C43.4740504,18.3890944 44.417453,18.1508178 44.9947017,17.851248 C45.5711829,17.550146 46.599791,17.5647031 47.009699,17.851248 C47.3889023,18.1155743 48.5303504,18.3890944 48.4152076,21.7770671 C48.3138821,24.7436501 48.7076701,26.4039252 49.6549108,27 C50.0425579,24.141446 50.0425579,24.141446 49.9473732,19.5912041 C49.6495374,17.2413823 48.6646835,16.7387794 47.8348884,16.3288822 Z" id="Fill-64"></path>
                        </g>
                    </g>
                </g>
            </g>
        </g>
    </g>
</svg>