<?xml version="1.0" encoding="UTF-8"?>
<svg width="606px" height="191px" viewBox="0 0 606 191" version="1.1" xmlns="http://www.w3.org/2000/svg" xmlns:xlink="http://www.w3.org/1999/xlink">
    <!-- Generator: Sketch 57.1 (83088) - https://sketch.com -->
    <title>Logo</title>
    <desc>Created with Sketch.</desc>
    <g id="Design" stroke="none" stroke-width="1" fill="none" fill-rule="evenodd">
        <g id="Roosevelt-Microsite-D2" transform="translate(-120.000000, -393.000000)">
            <g id="Logo" transform="translate(120.000000, 393.000000)">
                <path d="M17.4792379,158.776582 C14.7402703,156.872749 11.9996743,156.088915 9.26070673,156.088915 C6.30190523,156.088915 4.43901645,157.656582 4.43901645,159.616999 C4.43901645,165.160416 20,161.407667 20,171.768915 C20,176.415334 15.836183,180 9.64338056,180 C6.3556424,180 2.62986484,179.216166 0.109102752,177.535334 L0.109102752,173.28 L0.382673832,173.000416 C3.39684091,175.01575 6.62921348,175.912749 9.64338056,175.912749 C13.6980948,175.912749 15.5609836,174.288499 15.5609836,171.768915 C15.5609836,165.776166 0,169.472333 0,159.616999 C0,155.305082 3.83488031,152 9.26070673,152 C12.5484449,152 15.5609836,152.840416 17.752809,154.24 L17.752809,158.496999 L17.4792379,158.776582 Z" id="Fill-19" fill="#FFFFFE"></path>
                <path d="M29.2731694,143 L32,145.731003 L32,146.27623 L29.2731694,149.007233 L28.7268306,149.007233 L26,146.27623 L26,145.731003 L28.7268306,143 L29.2731694,143 Z M30.8554445,152.337011 L31.1278033,152.609625 L31.1278033,177.727387 L30.8554445,178 L27.1996758,178 L26.9273169,177.727387 L26.9273169,152.609625 L27.1996758,152.337011 L30.8554445,152.337011 Z" id="Fill-21" fill="#FFFFFE"></path>
                <path d="M45.915458,152.835478 L46.1869384,153.113419 L46.1869384,155.006066 C48.2537443,153.224265 50.863511,152 53.5815466,152 C58.0415813,152 61.0310973,153.725551 62.7181539,156.509926 C65.1097667,153.892647 68.480648,152 72.0147407,152 C79.5192338,152 83,156.399081 83,164.24761 L83,178.722059 L82.7269037,179 L79.084542,179 L78.8130616,178.722059 L78.8130616,164.525551 C78.8130616,158.958456 76.6913133,156.06489 72.0147407,156.06489 C68.9153397,156.06489 66.3605155,157.790441 64.56519,160.071875 L64.56519,178.722059 L64.2937096,179 L60.6513479,179 L60.3798676,178.722059 L60.3798676,164.30386 C60.3798676,159.014706 58.3680041,156.06489 53.5815466,156.06489 C50.863511,156.06489 47.9822639,157.623346 46.1869384,159.904779 L46.1869384,178.722059 L45.915458,179 L42.2714804,179 L42,178.722059 L42,153.113419 L42.2714804,152.835478 L45.915458,152.835478 Z" id="Fill-22" fill="#FFFFFE"></path>
                <path d="M95.0090365,151.839603 L95.2870052,152.118916 L95.2870052,154.020907 C97.1798396,152.230309 100.075347,151 103.248823,151 C110.932672,151 117,157.154869 117,164.987281 C117,172.818031 110.932672,178.9729 103.248823,178.9729 C100.075347,178.9729 97.1798396,177.742591 95.2870052,175.951993 L95.2870052,190.720687 L95.0090365,191 L91.2796233,191 L91,190.720687 L91,152.118916 L91.2796233,151.839603 L95.0090365,151.839603 Z M95.2870052,171.029095 C97.2923508,173.54624 100.075347,174.887942 103.248823,174.887942 C108.538501,174.887942 112.491282,170.636726 112.491282,164.987281 C112.491282,159.336174 108.538501,155.084958 103.248823,155.084958 C100.075347,155.084958 97.2923508,156.651108 95.2870052,158.943805 L95.2870052,171.029095 Z" id="Fill-24" fill="#FFFFFE"></path>
                <path d="M128.645893,139 L128.898683,139.279313 L128.898683,169.209069 C128.898683,173.40542 130.317618,174.916705 132.392602,174.916705 C133.861191,174.916705 135.228966,174.412943 136.74721,172.790266 L137,173.069579 L137,177.322457 C135.785705,178.160397 134.113981,179 132.392602,179 C127.734044,179 125,175.754645 125,169.490045 L125,139.279313 L125.254295,139 L128.645893,139 Z" id="Fill-26" fill="#FFFFFE"></path>
                <path d="M165.830991,176.3602 C163.578648,178.039467 159.637885,180 155.471218,180 C147.137885,180 141,173.559201 141,165.775321 C141,158.159534 146.235944,152 154.345047,152 C161.721218,152 166,158.382549 166,165.21612 C166,165.49572 166,166 165.718876,166.615787 L165.154953,166.895388 L145.447791,166.895388 C145.954819,171.991441 149.783467,175.912506 155.471218,175.912506 C159.073963,175.912506 162.84739,174.28816 165.549866,171.655254 L165.830991,171.936519 L165.830991,176.3602 Z M161.664324,163.42368 C161.383199,159.279601 158.342704,156.087494 154.345047,156.087494 C149.502343,156.087494 146.348059,159.334522 145.616801,163.42368 L161.664324,163.42368 Z" id="Fill-28" fill="#FFFFFE"></path>
                <polygon id="Fill-31" fill="#FFFFFE" points="176.759398 174 177 174.240602 177 177.759398 176.759398 178 173.242034 178 173 177.759398 173 174.240602 173.242034 174"></polygon>
                <path d="M218.479238,158.776582 C215.74027,156.872749 212.999674,156.088915 210.260707,156.088915 C207.301905,156.088915 205.439016,157.656582 205.439016,159.616999 C205.439016,165.160416 221,161.407667 221,171.768915 C221,176.415334 216.836183,180 210.643381,180 C207.355642,180 203.629865,179.216166 201.109103,177.535334 L201.109103,173.28 L201.382674,173.000416 C204.396841,175.01575 207.630842,175.912749 210.643381,175.912749 C214.698095,175.912749 216.560984,174.288499 216.560984,171.768915 C216.560984,165.776166 201,169.472333 201,159.616999 C201,155.305082 204.83488,152 210.260707,152 C213.548445,152 216.560984,152.840416 218.752809,154.24 L218.752809,158.496999 L218.479238,158.776582 Z" id="Fill-32" fill="#FFFFFE"></path>
                <path d="M249.830991,176.3602 C247.578648,178.039467 243.637885,180 239.471218,180 C231.136212,180 225,173.559201 225,165.775321 C225,158.159534 230.235944,152 238.345047,152 C245.721218,152 250,158.382549 250,165.21612 C250,165.49572 250,166 249.718876,166.615787 L249.154953,166.895388 L229.447791,166.895388 C229.954819,171.991441 233.783467,175.912506 239.471218,175.912506 C243.073963,175.912506 246.84739,174.28816 249.549866,171.655254 L249.830991,171.936519 L249.830991,176.3602 Z M245.664324,163.42368 C245.383199,159.279601 242.342704,156.087494 238.345047,156.087494 C233.502343,156.087494 230.348059,159.334522 229.616801,163.42368 L245.664324,163.42368 Z" id="Fill-34" fill="#FFFFFE"></path>
                <path d="M258.342267,153.735854 C259.932997,152.895388 262.162226,152 265.078827,152 C271.233643,152 275,155.6398 275,163.200666 L275,178.881598 L274.735141,179.161198 L271.180041,179.161198 L270.915182,178.881598 L270.915182,177.480266 C268.898786,179.048027 265.980609,180 263.647328,180 C259.084818,180 255,177.704945 255,172.608892 C255,164.993105 262.691944,162.975987 270.915182,162.416786 C270.915182,158.048027 268.580325,156.087494 264.919596,156.087494 C262.002995,156.087494 259.614536,157.039467 256.749961,158.943414 L256.485102,158.663814 L258.342267,153.735854 Z M270.915182,166.113172 C264.12502,166.50428 259.297651,168.353305 259.297651,172.21612 C259.297651,174.735854 261.206842,175.912506 264.017815,175.912506 C266.406275,175.912506 268.898786,174.903947 270.915182,173.50428 L270.915182,166.113172 Z" id="Fill-36" fill="#FFFFFE"></path>
                <path d="M287.915458,152.835478 L288.186938,153.113419 L288.186938,155.006066 C290.253744,153.224265 292.863511,152 295.581547,152 C300.041581,152 303.031097,153.725551 304.718154,156.509926 C307.109767,153.892647 310.480648,152 314.016357,152 C321.519234,152 325,156.399081 325,164.24761 L325,178.722059 L324.726904,179 L321.084542,179 L320.813062,178.722059 L320.813062,164.525551 C320.813062,158.958456 318.691313,156.06489 314.016357,156.06489 C310.916956,156.06489 308.360516,157.790441 306.566806,160.071875 L306.566806,178.722059 L306.29371,179 L302.651348,179 L302.379868,178.722059 L302.379868,164.30386 C302.379868,159.014706 300.368004,156.06489 295.581547,156.06489 C292.863511,156.06489 289.982264,157.623346 288.186938,159.904779 L288.186938,178.722059 L287.915458,179 L284.27148,179 L284,178.722059 L284,153.113419 L284.27148,152.835478 L287.915458,152.835478 Z" id="Fill-38" fill="#FFFFFE"></path>
                <path d="M337.645893,139 L337.898683,139.279313 L337.898683,169.209069 C337.898683,173.40542 339.317618,174.916705 341.392602,174.916705 C342.861191,174.916705 344.228966,174.412943 345.74721,172.790266 L346,173.069579 L346,177.322457 C344.784201,178.160397 343.113981,179 341.392602,179 C336.734044,179 334,175.754645 334,169.490045 L334,139.279313 L334.254295,139 L337.645893,139 Z" id="Fill-40" fill="#FFFFFE"></path>
                <path d="M375.830991,176.3602 C373.578648,178.039467 369.637885,180 365.471218,180 C357.136212,180 351,173.559201 351,165.775321 C351,158.159534 356.235944,152 364.345047,152 C371.721218,152 376,158.382549 376,165.21612 C376,165.49572 376,166 375.718876,166.615787 L375.154953,166.895388 L355.447791,166.895388 C355.954819,171.991441 359.783467,175.912506 365.471218,175.912506 C369.073963,175.912506 372.84739,174.28816 375.549866,171.655254 L375.830991,171.936519 L375.830991,176.3602 Z M371.664324,163.42368 C371.383199,159.279601 368.342704,156.087494 364.345047,156.087494 C359.502343,156.087494 356.348059,159.334522 355.616801,163.42368 L371.664324,163.42368 Z" id="Fill-42" fill="#FFFFFE"></path>
                <path d="M398.479238,158.776582 C395.74027,156.872749 392.999674,156.088915 390.260707,156.088915 C387.301905,156.088915 385.439016,157.656582 385.439016,159.616999 C385.439016,165.160416 401,161.407667 401,171.768915 C401,176.415334 396.836183,180 390.643381,180 C387.355642,180 383.629865,179.216166 381.109103,177.535334 L381.109103,173.28 L381.382674,173.000416 C384.396841,175.01575 387.630842,175.912749 390.643381,175.912749 C394.698095,175.912749 396.560984,174.288499 396.560984,171.768915 C396.560984,165.776166 381,169.472333 381,159.616999 C381,155.305082 384.83488,152 390.260707,152 C393.548445,152 396.560984,152.840416 398.752809,154.24 L398.752809,158.496999 L398.479238,158.776582 Z" id="Fill-44" fill="#FFFFFE"></path>
                <path d="M423.479238,158.776582 C420.74027,156.872749 417.999674,156.088915 415.260707,156.088915 C412.301905,156.088915 410.439016,157.656582 410.439016,159.616999 C410.439016,165.160416 426,161.407667 426,171.768915 C426,176.415334 421.836183,180 415.643381,180 C412.355642,180 408.629865,179.216166 406.109103,177.535334 L406.109103,173.28 L406.382674,173.000416 C409.396841,175.01575 412.630842,175.912749 415.643381,175.912749 C419.698095,175.912749 421.560984,174.288499 421.560984,171.768915 C421.560984,165.776166 406,169.472333 406,159.616999 C406,155.305082 409.83488,152 415.260707,152 C418.548445,152 421.560984,152.840416 423.752809,154.24 L423.752809,158.496999 L423.479238,158.776582 Z" id="Fill-46" fill="#FFFFFE"></path>
                <polygon id="Fill-49" fill="#FFFFFE" points="437.759398 174 438 174.240602 438 177.759398 437.759398 178 434.242034 178 434 177.759398 434 174.240602 434.242034 174"></polygon>
                <path d="M477.479238,158.776582 C474.74027,156.872749 471.999674,156.088915 469.260707,156.088915 C466.301905,156.088915 464.437388,157.656582 464.437388,159.616999 C464.437388,165.160416 480,161.407667 480,171.768915 C480,176.415334 475.836183,180 469.643381,180 C466.355642,180 462.629865,179.216166 460.109103,177.535334 L460.109103,173.28 L460.382674,173.000416 C463.396841,175.01575 466.629213,175.912749 469.643381,175.912749 C473.698095,175.912749 475.560984,174.288499 475.560984,171.768915 C475.560984,165.776166 460,169.472333 460,159.616999 C460,155.305082 463.83488,152 469.260707,152 C472.548445,152 475.560984,152.840416 477.752809,154.24 L477.752809,158.496999 L477.479238,158.776582 Z" id="Fill-50" fill="#FFA200"></path>
                <path d="M491.915458,152.835478 L492.186938,153.113419 L492.186938,155.006066 C494.253744,153.224265 496.863511,152 499.581547,152 C504.041581,152 507.031097,153.725551 508.718154,156.509926 C511.109767,153.892647 514.480648,152 518.014741,152 C525.519234,152 529,156.399081 529,164.24761 L529,178.722059 L528.726904,179 L525.084542,179 L524.813062,178.722059 L524.813062,164.525551 C524.813062,158.958456 522.691313,156.06489 518.014741,156.06489 C514.916956,156.06489 512.360516,157.790441 510.566806,160.071875 L510.566806,178.722059 L510.29371,179 L506.651348,179 L506.379868,178.722059 L506.379868,164.30386 C506.379868,159.014706 504.368004,156.06489 499.581547,156.06489 C496.863511,156.06489 493.982264,157.623346 492.186938,159.904779 L492.186938,178.722059 L491.915458,179 L488.27148,179 L488,178.722059 L488,153.113419 L488.27148,152.835478 L491.915458,152.835478 Z" id="Fill-52" fill="#FFA200"></path>
                <path d="M539.342267,153.735854 C540.932997,152.895388 543.162226,152 546.078827,152 C552.233643,152 556,155.6398 556,163.200666 L556,178.881598 L555.735141,179.161198 L552.180041,179.161198 L551.915182,178.881598 L551.915182,177.480266 C549.898786,179.048027 546.980609,180 544.647328,180 C540.084818,180 536,177.704945 536,172.608892 C536,164.993105 543.691944,162.975987 551.915182,162.416786 C551.915182,158.048027 549.580325,156.087494 545.919596,156.087494 C543.002995,156.087494 540.614536,157.039467 537.751537,158.943414 L537.485102,158.663814 L539.342267,153.735854 Z M551.915182,166.113172 C545.12502,166.50428 540.297651,168.353305 540.297651,172.21612 C540.297651,174.735854 542.206842,175.912506 545.017815,175.912506 C547.406275,175.912506 549.898786,174.903947 551.915182,173.50428 L551.915182,166.113172 Z" id="Fill-54" fill="#FFA200"></path>
                <path d="M569.050334,152.835478 L569.331166,153.113419 L569.331166,155.006066 C571.469168,153.224265 574.563336,152 577.543834,152 C579.230498,152 581.030832,152.277941 582.719168,153.113419 L583,157.4 L582.719168,157.677941 C580.918834,156.286581 578.949666,156.06489 577.543834,156.06489 C574.337667,156.06489 570.962667,157.623346 569.331166,159.904779 L569.331166,178.722059 L569.050334,179 L565.280832,179 L565,178.722059 L565,153.113419 L565.280832,152.835478 L569.050334,152.835478 Z" id="Fill-56" fill="#FFA200"></path>
                <path d="M593.771376,146 L594.050307,146.327439 L594.050307,152.545535 L604.721069,152.545535 L605,152.81786 L605,156.47318 L604.721069,156.745505 L594.050307,156.745505 L594.050307,168.418214 C594.050307,173.273062 596.341524,175.017241 598.855222,175.017241 C600.419226,175.017241 602.599203,174.63631 604.721069,173.162835 L605,173.436782 L605,177.362806 C603.435995,178.290009 600.811058,179 598.855222,179 C593.213515,179 589.748464,175.5084 589.748464,168.690539 L589.748464,156.745505 L585.278931,156.745505 L585,156.47318 L585,152.81786 L585.278931,152.545535 L589.748464,152.545535 L589.748464,146.272325 L590.029055,146 L593.771376,146 Z" id="Fill-58" fill="#FFA200"></path>
                <path d="M64.7446274,34.6773489 C64.7446274,52.8610549 52.2193907,65.5463351 33.5406576,68.718881 L61.3462565,108.680538 C64.5329472,113.330663 67.5046757,116.08151 71.7497677,116.08151 C75.7815385,116.08151 78.1165853,113.96648 80.0282715,111.6406 L83,114.599027 C81.3032759,117.137391 77.6932247,122 70.261442,122 C62.1979004,122 58.5894901,117.771573 54.7661177,112.063933 L25.473834,69.5639126 L7.21846148,69.5639126 L7.21846148,120.097453 L0,120.097453 L0,0 L23.9887903,0 C49.6743046,0 64.7446274,13.5319462 64.7446274,34.6773489 L64.7446274,34.6773489 Z M22.2920662,63.856272 C42.6691643,63.856272 57.1011645,52.8610549 57.1011645,34.6773489 C57.1011645,16.9169759 45.4259307,6.55430661 23.3504676,6.55430661 L7.21846148,6.55430661 L7.21846148,63.856272 L22.2920662,63.856272 Z" id="Fill-62" fill="#FFFFFE"></path>
                <path d="M280.505117,102.290096 C280.505117,93.0640456 268.561658,88.2419268 262.277332,84.8867046 C256.409262,81.7421969 243,75.4515606 243,63.290096 C243,51.9666265 251.799676,44 266.256865,44 C275.686594,44 283.017227,47.5643157 284.48465,48.4023108 L284.48465,54.6929471 C281.13193,52.8062425 273.590738,49.6601139 266.67636,49.6601139 C255.362954,49.6601139 249.703821,55.5325631 249.703821,62.8719089 C249.703821,71.885624 260.390414,76.2911766 266.467423,79.4356843 C272.332254,82.3710985 287,88.8708283 287,101.870288 C287,114.242467 277.361334,122 262.695207,122 C252.637046,122 245.094235,118.015876 243.417875,116.967167 L243.417875,110.467437 C245.304793,111.307053 253.686594,116.129172 262.695207,116.129172 C273.590738,116.129172 280.505117,110.67653 280.505117,102.290096" id="Fill-64" fill="#FFFFFE"></path>
                <path d="M338.053921,44 C354.894838,44 369,57.4556176 369,78.8994416 L369,82.4750375 L307.736041,82.4750375 L307.736041,83.7362477 C308.157552,103.497916 322.475911,116.114894 339.526769,116.114894 C354.476581,116.114894 364.36826,109.597558 366.895699,108.123437 L366.895699,114.432739 C364.789771,115.693949 355.106407,122 338.896944,122 C318.265682,122 301,106.442907 301,83.1040173 C301,59.9796633 318.475624,44 338.053921,44 L338.053921,44 Z M362.68547,77.2189115 C362.68547,61.2392482 351.737573,49.8867311 337.63241,49.8867311 C320.369983,49.8867311 310.051911,63.5520087 308.157552,77.2189115 L362.68547,77.2189115 Z" id="Fill-66" fill="#FFFFFE"></path>
                <polygon id="Fill-69" fill="#FFFFFE" points="430.850025 45 438 45 410.863594 120 404.133154 120 377 45 384.149975 45 407.499187 111.290185"></polygon>
                <path d="M481.053921,44 C497.894838,44 512,57.4556176 512,78.8994416 L512,82.4750375 L450.736041,82.4750375 L450.736041,83.7362477 C451.157552,103.497916 465.474284,116.114894 482.526769,116.114894 C497.474954,116.114894 507.36826,109.597558 509.895699,108.123437 L509.895699,114.432739 C507.789771,115.693949 498.104779,122 481.896944,122 C461.264055,122 444,106.442907 444,83.1040173 C444,59.9796633 461.475624,44 481.053921,44 L481.053921,44 Z M505.68547,77.2189115 C505.68547,61.2392482 494.737573,49.8867311 480.63241,49.8867311 C463.369983,49.8867311 453.051911,63.5520087 451.157552,77.2189115 L505.68547,77.2189115 Z" id="Fill-70" fill="#FFFFFE"></path>
                <path d="M537.918031,106.40713 C537.918031,112.938772 541.812452,116.100347 546.13643,116.100347 C550.460408,116.100347 554.134202,114.20275 555,113.78251 L555,119.470414 C553.704645,120.104032 550.460408,122 544.837732,122 C537.055575,122 531,117.152577 531,106.618879 L531,0 L537.918031,0 L537.918031,106.40713 Z" id="Fill-72" fill="#FFFFFE"></path>
                <path d="M578.452639,100.057692 C578.452639,112.805608 584.550612,117.053819 591.911748,117.053819 C598.430775,117.053819 604.107694,113.652951 606,112.59213 L606,118.751789 C604.528748,119.602417 598.848578,123 590.648585,123 C581.183803,123 571.722272,118.112998 571.722272,99.8442138 L571.722272,52.2616266 L557,52.2616266 L558.892306,46.3138033 L571.722272,46.3138033 L571.722272,17 L578.452639,17 L578.452639,46.3138033 L605.578946,46.3138033 L603.265585,52.2616266 L578.452639,52.2616266 L578.452639,100.057692 Z" id="Fill-74" fill="#FFFFFE"></path>
                <path d="M103.652881,44 C91.0423991,44 79.8507585,50.0169894 72.792265,59.318178 C68.4188563,64.1159226 66.3977375,72.0345458 66.4578029,72.0345458 C65.5162376,75.364022 65,78.8729892 65,82.498383 C65,103.764018 82.3036986,121 103.652881,121 C121.295868,121 136.167731,109.22313 140.799258,93.1320089 C148.123987,56.5110042 120.217938,44 103.652881,44 M103.652881,114.703263 C85.7988541,114.703263 71.3247218,100.28254 71.3247218,82.498383 C71.3247218,64.7158427 85.7988541,50.2999706 103.652881,50.2999706 C121.505285,50.2999706 135.977794,64.7158427 135.977794,82.498383 C135.977794,83.0481751 135.75539,87.0519551 134.455056,92.2879163 C130.294311,105.284031 118.078312,114.703263 103.652881,114.703263" id="Fill-76" fill="#FBCF51"></path>
                <path d="M159.200767,93.1320089 C163.832392,109.224747 178.704568,121 196.347927,121 C217.69756,121 235,103.765635 235,82.498383 C235,78.8729892 234.485375,75.364022 233.54379,72.0345458 C233.602233,72.0345458 231.582695,64.1159226 227.207571,59.318178 C220.150552,50.0169894 208.958675,44 196.347927,44 C179.782521,44 151.875883,56.5126213 159.200767,93.1320089 M165.545103,92.2895334 C164.243118,87.0519551 164.022333,83.0481751 164.022333,82.498383 C164.022333,64.7174598 178.495147,50.2999706 196.347927,50.2999706 C214.202331,50.2999706 228.675145,64.7174598 228.675145,82.498383 C228.675145,100.284157 214.202331,114.703263 196.347927,114.703263 C181.920569,114.703263 169.705936,105.285648 165.545103,92.2895334" id="Fill-78" fill="#FBCF51"></path>
                <path d="M163.828488,67.7515998 C162.861339,60.059362 159.659578,58.417053 156.961574,57.0749685 C156.685477,56.9386503 153.822783,56.0249943 151.006912,56.0006517 C148.255626,55.9730635 145.544704,56.8299204 145.320274,56.941896 C142.568988,58.3115687 139.184777,59.7997084 138.185336,67.7515998 C137.946375,81.3314829 137.691267,77.9381349 139.134724,92 C142.21539,90.0493524 143.497386,84.614478 143.168006,74.9066792 C142.790189,63.8178478 145.857938,63.038887 147.732494,62.055449 C149.60705,61.072011 152.947667,61.1206961 154.279716,62.055449 C155.516503,62.9204201 159.22202,63.8178478 158.847432,74.9066792 C158.518053,84.614478 159.800049,90.0493524 162.8791,92 C164.138492,82.6427335 164.138492,82.6427335 163.828488,67.7515998" id="Fill-80" fill="#FBCF51"></path>
            </g>
        </g>
    </g>
</svg>